{
  "name": "Contacts Create Form",
  "key": "contacts-create",
  "version": "1.0.0",
  "forms": {
    "caseNotes": {
      "metadata": {
        "layout": {
          "single": [],
          "double": [
            [
              "contactId",
              "name"
            ],
            [
              "fullName"
            ]
          ]
        }
      },
      "fields": {
        "contactId": {
          "label": "Contact ID",
          "icon": "person",
          "type": "text",
          "tabIndex": 1,
          "initial": "",
          "validation": {
            "required": true
          }
        },
        "name": {
          "label": "Name",
          "tabIndex": 3,
          "icon": "name",
          "type": "text",
          "initial": ""
        },
        "fullName": {
          "label": "Full Name",
          "tabIndex": 4,
          "icon": "name",
          "type": "text",
          "initial": ""
        }
      }
    }
  }
}