{
    "version": "1.0.0",
    "name": "Default",
    "key": "warrantAndromeda",
    "case": {
        "name": "Case Andromeda",
        "key": "caseAndromeda",
        "general": {
            "metadata": {
                "layout": {
                    "rows": [
                        [
                            "liId",
                            "startDateTime",
                            "stopDateTime",
                            "timeZone"
                        ],
                        [
                            "entryDateTime",
                            "services",
                            "type",
                            "cfId"
                        ]
                    ]
                }
            },
            "fields": {
                "liId": {
                    "label": "Case Name",
                    "type": "text",
                    "validation": {
                        "required": true,
                        "validators": [
                            {
                                "type": "regexp",
                                "regexp": "^[A-Za-z0-9\\s\\-_\\.~!@#$%^*+?/]{1,25}$",
                                "errorMessage": "Must be between 1-25 characters.  Can include letters, digits, spaces and the following special characters: -_.~!@#$%^*+?/. Please re-enter."
                            },
                            {
                                "type": "length",
                                "length": 25,
                                "errorMessage": "Exceeds maximum length, 25.  Please re-enter."
                            }
                        ]
                    }
                },
                "startDateTime": {
                    "label": "Start Time",
                    "icon": "time",
                    "type": "datetime",
                    "hide": "true",
                    "timePrecision": "minute"
                },
                "stopDateTime": {
                    "label": "Stop Time",
                    "icon": "time",
                    "type": "datetime",
                    "hide": "true",
                    "validation": {
                        "required": true
                    },
                    "timePrecision": "minute"
                },
                "timeZone": {
                    "label": "Time Zone",
                    "type": "timezone",
                    "hide": "true",
                    "disabled": true
                },
                "entryDateTime": {
                    "label": "Entry Time",
                    "type": "datetime",
                    "disabled": true
                },
                "services": {
                    "label": "Services",
                    "type": "multiselectTypeahead",
                    "readOnlyIfOneOption": true,
                    "options": [
                        {
                            "label": "Select",
                            "value": "Select"
                        }
                    ],
                    "validation": {
                        "required": true
                    }
                },
                "type": {
                    "label": "Type",
                    "type": "select",
                    "readOnlyIfOneOption": false,
                    "options": [
                        {
                            "label": "Select",
                            "value": ""
                        },
                        {
                            "label": "Data Only",
                            "value": "CD"
                        },
                        {
                            "label": "Content Only",
                            "value": "CC"
                        },
                        {
                            "label": "Data and Content",
                            "value": "ALL"
                        }
                    ],
                    "validation": {
                        "required": true
                    }
                },
                "cfId": {
                    "label": "CF",
                    "type": "select",
                    "readOnlyIfOneOption": true,
                    "options": [],
                    "validation": {
                        "required": true
                    }
                }
            }
        }
    },
    "general": {
        "metadata": {
            "layout": {
                "rows": [
                    [
                        "name",
                        "receivedDateTime",
                        "startDateTime",
                        "stopDateTime",
                        "timeZone"
                    ],
                    [
                        "judge",
                        "region",
                        "state",
                        "city",
                        "contact",
                        "dxOwner"
                    ],
                    [
                        "comments"
                    ]
                ]
            }
        },
        "fields": {
            "name": {
                "label": "Warrant Name",
                "type": "text",
                "validation": {
                    "required": true,
                    "validators": [
                        {
                            "type": "regexp",
                            "regexp": "^[A-Za-z0-9\\s\\-_\\.~!@#$%^*+?/]{1,32}$",
                            "errorMessage": "Must be between 1-32 characters.  Can include letters, digits, spaces and the following special characters: -_.~!@#$%^*+?/. Please re-enter."
                        },
                        {
                            "type": "length",
                            "length": 32,
                            "errorMessage": "Exceeds maximum length, 32.  Please re-enter."
                        }
                    ]
                }
            },
            "receivedDateTime": {
                "label": "Received Time",
                "icon": "time",
                "type": "datetime",
                "hide": "true",
                "timePrecision": "minute"
            },
            "startDateTime": {
                "label": "Start Time",
                "icon": "time",
                "type": "datetime",
                "timePrecision": "minute"
            },
            "stopDateTime": {
                "label": "Stop Time",
                "icon": "time",
                "type": "datetime",
                "validation": {
                    "required": true
                },
                "timePrecision": "minute"
            },
            "timeZone": {
                "label": "Time Zone",
                "type": "timezone",
                "initial": "",
                "options": [{
                    "label": "Select",
                    "value": ""
                }],
                "validation": {
                    "required": true
                }
            },
            "judge": {
                "label": "Judge",
                "type": "text",
                "hide": "true"
            },
            "region": {
                "label": "Region",
                "type": "text",
                "hide": "true"
            },
            "state": {
                "label": "State",
                "type": "text",
                "hide": "true"
            },
            "city": {
                "label": "City",
                "type": "text",
                "hide": "true"
            },
            "contact": {
                "label": "Contact",
                "type": "select",
                "readOnlyIfOneOption": false,
                "options": [],
                "validation": {
                    "required": false
                }
            },
            "dxOwner": {
                "label": "Visibility",
                "type": "select",
                "readOnlyIfOneOption": false,
                "options": []
            },
            "comments": {
                "label": "Comments",
                "icon": "edit",
                "tabIndex": 12,
                "type": "textarea",
                "validation": {
                    "required": false,
                    "validators": [
                        {
                            "type": "length",
                            "length": 256,
                            "errorMessage": "Exceeds maximum length, 256.  Please re-enter."
                        }
                    ]
                }
            }
        }
    }
}