{
  "name": "Form Builder Test Form",
  "key": "test-form",
  "version": "1.0.0",
  "forms": {
    "spec": {
      "metadata": {
        "layout": {
          "double": [
            [
              "judge",
              "region",
              "city",
              "startDate"
            ],
            [
              "contacts",
              "state",
              "endDate",
              "notes",
              "port",
              "caseTarget"
            ]
          ]
        }
      },
      "fields": {
        "judge": {
          "label": "Judge",
          "icon": "person",
          "type": "text",
          "initial": "",
          "validation": {
            "required": true
          }
        },
        "region": {
          "label": "Region",
          "icon": "location",
          "type": "text",
          "initial": "",
          "validation": {
            "required": true
          }
        },
        "city": {
          "label": "City",
          "icon": "location",
          "type": "text",
          "initial": "",
          "validation": {
            "required": true
          }
        },
        "endDate": {
          "label": "End Date",
          "icon": "time",
          "type": "datetime",
          "initial": ""
        },
        "contacts": {
          "label": "Contacts",
          "icon": "people",
          "type": "select",
          "initial": "",
          "options": [],
          "extended": {
            "optionSource": "contacts",
            "optionKey": "id",
            "optionValue": "name"
          }
        },
        "state": {
          "label": "Current State",
          "icon": "",
          "type": "text",
          "initial": "",
          "validation": {
            "required": true
          }
        },
        "startDate": {
          "label": "Start Date",
          "icon": "time",
          "type": "datetime",
          "initial": ""
        },
        "notes": {
          "label": "Time Zone",
          "icon": "",
          "type": "textarea",
          "initial": ""
        },
        "port": {
          "label": "Port Number",
          "type": "textSuggest",
          "placeholder":"placeholder for port",
          "options": [
              {"label": "1111", "value": "1111"},
              {"label": "2222", "value": "2222"},
              {"label": "3333", "value": "3333"}
          ],
          "initial": "",
          "validation": {
              "validators": [
                  {
                    "type": "length",
                    "length": 4,
                    "errorMessage": "Port must have 4 digits."
                  }
              ]
          }
      
        },
        "caseTarget" :{
          "type": "radio",
          "inline": true,
          "options": [
            {"label": "SWITCHED", "value": "YES" },
            {"label": "DEDICATED", "value": "NO" }
          ],
          "validation": {
            "required": true
          }
        }
      }
    }
  }
}