// Jest Snapshot v1, https://goo.gl/fbAQLP

exports[`navbarConfig should return the enable nav configs with the external dashboard and without the security gateway 1`] = `
Array [
  Object {
    "children": Array [
      Object {
        "className": "bp3-intent-primary",
        "icon": "intersection",
        "id": "warrants",
        "inactiveClassName": "bp3-minimal",
        "permissions": Array [
          "warrant_view",
        ],
        "route": "/warrants",
        "text": "Warrants",
      },
      Object {
        "className": "bp3-intent-primary",
        "icon": "history",
        "id": "cases",
        "inactiveClassName": "bp3-minimal",
        "permissions": Array [
          "warrant_view",
          "contacts_view",
        ],
        "route": "/cases",
        "text": "Cases",
      },
      Object {
        "className": "bp3-intent-primary",
        "icon": "tag",
        "id": "wiretaps",
        "inactiveClassName": "bp3-minimal",
        "permissions": Array [
          "warrant_view",
          "contacts_view",
        ],
        "route": "/wiretaps",
        "text": "Wiretaps",
      },
    ],
    "className": "bp3-intent-primary",
    "defaultSelected": true,
    "icon": <span
      className="bp3-icon"
    >
      <svg
        height="16"
        style={
          Object {
            "fill": "currentColor",
          }
        }
        viewBox="0 0 17 16"
        width="17"
        xmlns="http://www.w3.org/2000/svg"
      >
        <path
          clipRule="evenodd"
          d="M8.5 16C12.9183 16 16.5 12.4183 16.5 8C16.5 3.58172 12.9183 0 8.5 0C4.08172 0 0.5 3.58172 0.5 8C0.5 12.4183 4.08172 16 8.5 16ZM7.87753 8.0033C7.87753 7.65866 8.15835 7.37668 8.50156 7.37668C8.84477 7.37668 9.12558 7.65866 9.12558 8.0033C9.12558 8.34794 8.84477 8.62992 8.50156 8.62992C8.15835 8.62992 7.87753 8.34794 7.87753 8.0033ZM13.4938 7.97197V7.9845C13.4938 7.98763 13.4953 7.9892 13.4969 7.99077C13.4984 7.99233 13.5 7.9939 13.5 7.99703V8.01583V8.02836V8.03463V8.04716V8.05969C13.4875 8.14115 13.4501 8.22262 13.3939 8.28528C13.2914 8.41854 13.1772 8.54594 13.0682 8.66749L13.0569 8.68005C12.4329 9.36307 11.7153 9.97089 10.9353 10.4158C10.4298 10.6978 9.89938 10.9234 9.34399 11.0361C8.73245 11.1615 8.1209 11.1552 7.5156 11.0111C6.46724 10.7667 5.51872 10.1526 4.68877 9.41946C4.30187 9.08109 3.92122 8.71138 3.60296 8.29154C3.46568 8.10982 3.46568 7.89051 3.60296 7.70879C3.68351 7.60412 3.76765 7.50668 3.85265 7.40823C3.87961 7.37701 3.90665 7.3457 3.9337 7.31401C4.55772 6.631 5.27535 6.02317 6.05538 5.57827C6.56084 5.29629 7.09126 5.07071 7.64665 4.95791C8.25819 4.83886 8.86349 4.84512 9.47504 4.99551C10.5234 5.23989 11.4719 5.85398 12.3019 6.58713C12.6888 6.92551 13.0694 7.29522 13.3877 7.71505C13.4438 7.77771 13.4813 7.85291 13.4938 7.94064V7.95317V7.9657V7.97197ZM6.62949 8.0033C6.62949 9.04349 7.46568 9.88316 8.50156 9.88316C9.53744 9.88316 10.3736 9.04349 10.3736 8.0033C10.3736 6.96311 9.53744 6.12343 8.50156 6.12343C7.46568 6.12343 6.62949 6.96311 6.62949 8.0033Z"
          fillRule="evenodd"
        />
      </svg>
    </span>,
    "id": "intercepts",
    "inactiveClassName": "bp3-minimal",
    "permissions": Array [
      "warrant_view",
      "contacts_view",
    ],
    "route": "/warrants",
    "text": "Intercepts",
  },
  Object {
    "children": Array [
      Object {
        "className": "bp3-intent-primary",
        "icon": <svg
          height="16"
          style={
            Object {
              "fill": "currentColor",
            }
          }
          viewBox="0 0 15 16"
          width="15"
          xmlns="http://www.w3.org/2000/svg"
        >
          <path
            d="M4.82179 2.10363C4.77243 2.05291 4.71341 2.0126 4.64821 1.98507C4.58301 1.95754 4.51295 1.94336 4.44218 1.94336C4.3714 1.94336 4.30135 1.95754 4.23615 1.98507C4.17095 2.0126 4.11193 2.05291 4.06257 2.10363C3.64777 2.517 3.31864 3.00818 3.09408 3.54901C2.86951 4.08984 2.75391 4.66968 2.75391 5.25528C2.75391 5.84088 2.86951 6.42072 3.09408 6.96155C3.31864 7.50238 3.64777 7.99356 4.06257 8.40693C4.16036 8.50673 4.29363 8.56384 4.43335 8.56583C4.53853 8.56787 4.64193 8.53854 4.73038 8.48159C4.81882 8.42464 4.88831 8.34264 4.92998 8.24605C4.97164 8.14945 4.98361 8.04264 4.96434 7.93922C4.94507 7.83581 4.89545 7.74047 4.82179 7.66536C4.50309 7.35011 4.25008 6.97477 4.0774 6.56108C3.90473 6.14739 3.81582 5.70356 3.81582 5.25528C3.81582 4.807 3.90473 4.36317 4.0774 3.94948C4.25008 3.53579 4.50309 3.16045 4.82179 2.8452C4.91485 2.74414 4.96651 2.61179 4.96651 2.47442C4.96651 2.33704 4.91485 2.20469 4.82179 2.10363Z"
          />
          <path
            d="M10.3833 2.10363C10.334 2.05291 10.275 2.0126 10.2098 1.98507C10.1446 1.95754 10.0745 1.94336 10.0037 1.94336C9.93305 1.94336 9.86295 1.95754 9.79775 1.98507C9.73255 2.0126 9.67355 2.05291 9.62415 2.10363C9.53111 2.20469 9.47945 2.33704 9.47945 2.47442C9.47945 2.61179 9.53111 2.74414 9.62415 2.8452C9.94285 3.16045 10.1958 3.53579 10.3685 3.94948C10.5412 4.36317 10.6301 4.807 10.6301 5.25528C10.6301 5.70356 10.5412 6.14739 10.3685 6.56108C10.1958 6.97477 9.94285 7.35011 9.62415 7.66536C9.55051 7.74047 9.50089 7.83581 9.48162 7.93922C9.46235 8.04264 9.47431 8.14945 9.51598 8.24605C9.55765 8.34264 9.62715 8.42464 9.71555 8.48159C9.80405 8.53854 9.90745 8.56787 10.0126 8.56583C10.1523 8.56384 10.2855 8.50673 10.3833 8.40693C10.7981 7.99356 11.1273 7.50238 11.3518 6.96155C11.5764 6.42072 11.692 5.84088 11.692 5.25528C11.692 4.66968 11.5764 4.08984 11.3518 3.54901C11.1273 3.00818 10.7981 2.517 10.3833 2.10363Z"
          />
          <path
            d="M2.86185 9.60848C1.70927 8.45328 1.06198 6.88806 1.06198 5.25621C1.06198 3.62436 1.70927 2.05914 2.86185 0.903939C2.91257 0.854581 2.95289 0.795559 2.98042 0.730359C3.00794 0.665158 3.02213 0.595103 3.02213 0.524329C3.02213 0.453556 3.00794 0.383501 2.98042 0.3183C2.95289 0.2531 2.91257 0.194078 2.86185 0.14472C2.7608 0.0516585 2.62845 0 2.49107 0C2.35369 0 2.22134 0.0516585 2.12029 0.14472C1.44816 0.81548 0.91493 1.61221 0.551101 2.48931C0.187273 3.36641 0 4.30665 0 5.25621C0 6.20577 0.187273 7.14602 0.551101 8.02311C0.91493 8.90021 1.44816 9.69694 2.12029 10.3677C2.22311 10.4571 2.3548 10.5064 2.49107 10.5064C2.62734 10.5064 2.75903 10.4571 2.86185 10.3677C2.91257 10.3183 2.95289 10.2593 2.98042 10.1941C3.00794 10.1289 3.02213 10.0589 3.02213 9.98809C3.02213 9.91732 3.00794 9.84726 2.98042 9.78206C2.95289 9.71686 2.91257 9.65784 2.86185 9.60848Z"
          />
          <path
            d="M11.5842 0.14472C11.5334 0.194078 11.4931 0.2531 11.4656 0.3183C11.4381 0.383501 11.4239 0.453556 11.4239 0.524329C11.4239 0.595103 11.4381 0.665158 11.4656 0.730359C11.4931 0.795559 11.5334 0.854581 11.5842 0.903939C12.7367 2.05914 13.384 3.62436 13.384 5.25621C13.384 6.88806 12.7367 8.45328 11.5842 9.60848C11.5334 9.65784 11.4931 9.71686 11.4656 9.78206C11.4381 9.84726 11.4239 9.91732 11.4239 9.98809C11.4239 10.0589 11.4381 10.1289 11.4656 10.1941C11.4931 10.2593 11.5334 10.3183 11.5842 10.3677C11.687 10.4571 11.8187 10.5064 11.9549 10.5064C12.0912 10.5064 12.2229 10.4571 12.3257 10.3677C12.9978 9.69694 13.5311 8.90021 13.8949 8.02311C14.2587 7.14602 14.446 6.20577 14.446 5.25621C14.446 4.30665 14.2587 3.36641 13.8949 2.48931C13.5311 1.61221 12.9978 0.81548 12.3257 0.14472C12.2247 0.0516585 12.0923 0 11.9549 0C11.8176 0 11.6852 0.0516585 11.5842 0.14472Z"
          />
          <path
            d="M8.40504 6.80108L8.59925 6.62451C8.78263 6.44582 8.92738 6.23139 9.02457 5.99451C9.12175 5.75763 9.16929 5.50332 9.16426 5.24733C9.16527 4.99189 9.11589 4.73877 9.01893 4.50245C8.92198 4.26613 8.77937 4.05126 8.59925 3.87014C8.23244 3.50784 7.73763 3.30469 7.22206 3.30469C6.7065 3.30469 6.21169 3.50784 5.84488 3.87014C5.66337 4.05062 5.51933 4.26521 5.42104 4.50156C5.32276 4.73791 5.27216 4.99135 5.27216 5.24733C5.27216 5.5033 5.32276 5.75674 5.42104 5.99309C5.51933 6.22944 5.66337 6.44403 5.84488 6.62451L6.03909 6.80108L2.98456 13.793C2.95508 13.8566 2.93854 13.9256 2.93592 13.9957C2.93329 14.0658 2.94463 14.1358 2.96927 14.2015C2.99391 14.2672 3.03137 14.3273 3.07946 14.3785C3.12755 14.4296 3.18531 14.4706 3.2494 14.4992L3.46128 14.5345C3.56537 14.534 3.66718 14.5039 3.75474 14.4476C3.8423 14.3913 3.912 14.3112 3.95565 14.2167L4.55597 12.8219L6.69238 14.1814V15.4703C6.69238 15.5399 6.70608 15.6087 6.7327 15.673C6.75932 15.7373 6.79833 15.7957 6.84752 15.8449C6.89671 15.894 6.9551 15.9331 7.01936 15.9597C7.08363 15.9863 7.15251 16 7.22206 16C7.29162 16 7.3605 15.9863 7.42477 15.9597C7.48903 15.9331 7.54742 15.894 7.59661 15.8449C7.6458 15.7957 7.68481 15.7373 7.71143 15.673C7.73805 15.6087 7.75175 15.5399 7.75175 15.4703V14.1814L9.88815 12.8219L10.4884 14.2167C10.5321 14.3112 10.6018 14.3913 10.6893 14.4476C10.7769 14.5039 10.8787 14.534 10.9828 14.5345L11.1947 14.4992C11.2588 14.4706 11.3165 14.4296 11.3646 14.3785C11.4127 14.3273 11.4502 14.2672 11.4748 14.2015C11.4994 14.1358 11.5108 14.0658 11.5082 13.9957C11.5055 13.9256 11.489 13.8566 11.4595 13.793L8.40504 6.80108ZM6.58644 4.62936C6.75522 4.46116 6.98379 4.36671 7.22206 4.36671C7.46034 4.36671 7.68891 4.46116 7.85769 4.62936C8.01756 4.79521 8.10626 5.01697 8.10488 5.24733C8.10715 5.48308 8.01864 5.71067 7.85769 5.88295C7.68891 6.05115 7.46034 6.14559 7.22206 6.14559C6.98379 6.14559 6.75522 6.05115 6.58644 5.88295C6.42356 5.71495 6.33248 5.49015 6.33248 5.25615C6.33248 5.02216 6.42356 4.79735 6.58644 4.62936ZM4.99737 11.8508L6.69238 7.96639V12.9278L4.99737 11.8508ZM7.75175 12.9278V7.96639L9.44676 11.8331L7.75175 12.9278Z"
          />
        </svg>,
        "id": "afs",
        "inactiveClassName": "bp3-minimal",
        "permissions": Array [
          "af_write",
        ],
        "route": "/afs",
        "text": "4G & 5G Access Function",
      },
      Object {
        "className": "bp3-intent-primary",
        "icon": <svg
          fill="none"
          height="16"
          style={
            Object {
              "fill": "currentColor",
            }
          }
          viewBox="0 0 16 16"
          width="16"
          xmlns="http://www.w3.org/2000/svg"
        >
          <path
            d="M5.71534 2.95678C5.64062 2.87922 5.5413 2.83594 5.438 2.83594C5.3347 2.83594 5.23538 2.87922 5.16066 2.95678C4.40614 3.7795 3.98243 4.89401 3.98243 6.05596C3.98243 7.2179 4.40614 8.33242 5.16066 9.1551C5.23755 9.21972 5.33131 9.25616 5.42844 9.2591C5.53147 9.25634 5.63139 9.22016 5.71534 9.1551C5.77901 9.06985 5.81378 8.96337 5.81378 8.85353C5.81378 8.74369 5.77901 8.6372 5.71534 8.55193C5.41172 8.22337 5.1708 7.8328 5.00641 7.40269C4.84201 6.97256 4.75738 6.51135 4.75738 6.04556C4.75738 5.57976 4.84201 5.11855 5.00641 4.68843C5.1708 4.2583 5.41172 3.86774 5.71534 3.53918C5.78121 3.4591 5.81762 3.35542 5.81762 3.24798C5.81762 3.14054 5.78121 3.03686 5.71534 2.95678Z"
            strokeWidth="0.3"
          />
          <path
            d="M10.7366 2.95678C10.6698 3.03686 10.6328 3.14054 10.6328 3.24798C10.6328 3.35542 10.6698 3.4591 10.7366 3.53918C12.2898 5.20317 12.2898 6.88795 10.7366 8.55193C10.672 8.6372 10.6367 8.74369 10.6367 8.85353C10.6367 8.96337 10.672 9.06985 10.7366 9.1551C10.8219 9.22016 10.9233 9.25634 11.0278 9.2591C11.1264 9.25616 11.2216 9.21972 11.2996 9.1551C13.1634 7.15835 13.1634 4.95357 11.2996 2.95678C11.2238 2.87922 11.123 2.83594 11.0181 2.83594C10.9133 2.83594 10.8124 2.87922 10.7366 2.95678Z"
            strokeWidth="0.3"
          />
          <path
            d="M3.87016 1.11851C3.78832 1.04244 3.67953 1 3.56639 1C3.45325 1 3.34446 1.04244 3.26261 1.11851C1.7961 2.56679 1 4.25986 1 6.05493C1 7.84998 1.7961 9.54302 3.26261 10.9709C3.33997 11.0478 3.44539 11.0918 3.55592 11.0933C3.61416 11.0953 3.67218 11.0855 3.7263 11.0644C3.7804 11.0433 3.82941 11.0114 3.87016 10.9709C3.94231 10.8924 3.9822 10.7907 3.9822 10.6853C3.9822 10.58 3.94231 10.4783 3.87016 10.3998C2.55031 9.11467 1.838 7.6052 1.838 6.05493C1.838 4.50464 2.55031 2.97477 3.87016 1.68966C3.94231 1.61112 3.9822 1.50945 3.9822 1.40408C3.9822 1.29871 3.94231 1.19704 3.87016 1.11851Z"
            strokeWidth="0.3"
          />
          <path
            d="M13.1883 1.11821C13.1064 1.04233 12.9976 1 12.8846 1C12.7714 1 12.6626 1.04233 12.5807 1.11821C12.5086 1.19654 12.4687 1.29795 12.4687 1.40305C12.4687 1.50814 12.5086 1.60956 12.5807 1.68789C13.9006 2.96969 14.6129 4.45494 14.6129 5.9402C14.6129 7.42546 13.9006 8.89037 12.5807 10.1721C12.5086 10.2505 12.4687 10.3519 12.4687 10.4569C12.4687 10.5621 12.5086 10.6635 12.5807 10.7418C12.6215 10.7823 12.6705 10.814 12.7246 10.8351C12.7787 10.8561 12.8367 10.8659 12.895 10.8639C13.0055 10.8624 13.111 10.8185 13.1883 10.7418C14.6548 9.3176 15.4509 7.64926 15.4509 5.9402C15.4509 4.23114 14.6548 2.56277 13.1883 1.11821Z"
            strokeWidth="0.3"
          />
          <path
            d="M8.21497 4.22656C7.76575 4.24171 7.33701 4.39838 7.00728 4.70384C6.67755 5.00932 6.4689 5.42335 6.41953 5.87011C6.37016 6.31688 6.48339 6.76648 6.73848 7.13656C6.99355 7.50666 7.37342 7.77248 7.80849 7.88535V14.8158C7.80849 14.9235 7.85132 15.0269 7.92755 15.1031C8.00378 15.1794 8.10717 15.2222 8.21497 15.2222C8.32278 15.2222 8.42616 15.1794 8.5024 15.1031C8.57863 15.0269 8.62144 14.9235 8.62144 14.8158V7.90568C9.05655 7.7928 9.43638 7.52698 9.69149 7.15689C9.94651 6.7868 10.0597 6.3372 10.0104 5.89044C9.961 5.44368 9.75238 5.02965 9.42269 4.72417C9.09291 4.4187 8.6642 4.24171 8.21497 4.22656ZM8.21497 7.11304C8.00595 7.11304 7.80162 7.05106 7.62783 6.93494C7.45403 6.81881 7.31857 6.65376 7.23858 6.46064C7.15859 6.26753 7.13767 6.05504 7.17844 5.85003C7.21922 5.64503 7.31987 5.45672 7.46768 5.30891C7.61548 5.16112 7.80379 5.06046 8.00879 5.01968C8.2138 4.9789 8.4263 4.99984 8.61941 5.07982C8.81252 5.15981 8.97753 5.29527 9.09371 5.46906C9.2098 5.64286 9.27184 5.84719 9.27184 6.05621C9.27184 6.195 9.24447 6.33242 9.1914 6.46064C9.13824 6.58887 9.06038 6.70537 8.96224 6.80351C8.86413 6.90164 8.74763 6.97949 8.61941 7.0326C8.49119 7.08571 8.35376 7.11304 8.21497 7.11304Z"
            strokeWidth="0.3"
          />
        </svg>,
        "id": "xms_af",
        "inactiveClassName": "bp3-minimal",
        "permissions": Array [
          "af_write",
        ],
        "route": "/afs/xms",
        "text": "3G Access Function",
        "url": "/#!af",
      },
    ],
    "className": "bp3-intent-primary",
    "defaultSelected": true,
    "icon": <span
      className="bp3-icon"
    >
      <svg
        height="16"
        style={
          Object {
            "fill": "currentColor",
          }
        }
        viewBox="0 0 16 16"
        width="16"
        xmlns="http://www.w3.org/2000/svg"
      >
        <path
          clipRule="evenodd"
          d="M15 0H1C0.45 0 0 0.192857 0 0.428571V5.57143C0 5.80714 0.45 6 1 6H15C15.55 6 16 5.80714 16 5.57143V0.428571C16 0.192857 15.55 0 15 0ZM8.5 3H13.5C13.78 3 14 2.78 14 2.5C14 2.22 13.78 2 13.5 2H8.5C8.22 2 8 2.22 8 2.5C8 2.78 8.22 3 8.5 3ZM2 2.5C2 2.22386 2.22386 2 2.5 2H3.5C3.77614 2 4 2.22386 4 2.5C4 2.77614 3.77614 3 3.5 3H2.5C2.22386 3 2 2.77614 2 2.5Z"
          fillRule="evenodd"
        />
        <path
          clipRule="evenodd"
          d="M7.5 6L7.5 14C7.5 14.56 7.72 15 8 15C8.28 15 8.5 14.56 8.5 14L8.5 6C8.5 5.44 8.28 5 8 5C7.72 5 7.5 5.44 7.5 6Z"
          fillRule="evenodd"
        />
        <path
          clipRule="evenodd"
          d="M11.5 13H4.5C4.225 13 4 13.0964 4 13.2143V15.7857C4 15.9036 4.225 16 4.5 16H11.5C11.775 16 12 15.9036 12 15.7857V13.2143C12 13.0964 11.775 13 11.5 13Z"
          fillRule="evenodd"
        />
        <line
          strokeLinecap="round"
          strokeLinejoin="round"
          x1="0.5"
          x2="15.5"
          y1="14.5"
          y2="14.5"
        />
        <path
          clipRule="evenodd"
          d="M9.75 9H6.25C6.1125 9 6 9.16071 6 9.35714V13.6429C6 13.8393 6.1125 14 6.25 14H9.75C9.8875 14 10 13.8393 10 13.6429V9.35714C10 9.16071 9.8875 9 9.75 9Z"
          fillRule="evenodd"
        />
      </svg>
    </span>,
    "id": "accessFunction",
    "inactiveClassName": "bp3-minimal",
    "permissions": Array [
      "af_write",
    ],
    "route": "/afs",
    "text": "Access Function",
  },
  Object {
    "className": "bp3-intent-primary",
    "defaultSelected": true,
    "icon": "badge",
    "id": "cfs",
    "inactiveClassName": "bp3-minimal",
    "permissions": Array [
      "cf_write",
    ],
    "route": "/cfs",
    "text": "Collection Function",
  },
  Object {
    "className": "bp3-intent-primary",
    "defaultSelected": true,
    "icon": <span
      className="bp3-icon"
    >
      <svg
        height="16"
        style={
          Object {
            "fill": "currentColor",
          }
        }
        viewBox="0 0 16 16"
        width="16"
        xmlns="http://www.w3.org/2000/svg"
      >
        <path
          clipRule="evenodd"
          d="M9 0H3C2.45 0 2 0.45 2 1V15C2 15.55 2.45 16 3 16H13C13.55 16 14 15.55 14 15V5L9 0ZM12 14H4V2H8V6H12V14Z"
          fillRule="evenodd"
        />
        <path
          clipRule="evenodd"
          d="M10.5714 11H5.42857C5.19286 11 5 11.225 5 11.5C5 11.775 5.19286 12 5.42857 12H10.5714C10.8071 12 11 11.775 11 11.5C11 11.225 10.8071 11 10.5714 11ZM5.375 8H10.625C10.8313 8 11 7.775 11 7.5C11 7.225 10.8313 7 10.625 7H5.375C5.16875 7 5 7.225 5 7.5C5 7.775 5.16875 8 5.375 8ZM10.625 9H5.375C5.16875 9 5 9.225 5 9.5C5 9.775 5.16875 10 5.375 10H10.625C10.8313 10 11 9.775 11 9.5C11 9.225 10.8313 9 10.625 9Z"
          fillRule="evenodd"
        />
      </svg>
    </span>,
    "id": "xms_reports",
    "inactiveClassName": "bp3-minimal",
    "permissions": Array [
      "af_report",
      "cf_report",
      "warrant_report",
      "stat_report",
    ],
    "route": "/xms/reports",
    "text": "Reports",
    "url": "/#!reports",
  },
  Object {
    "className": "bp3-intent-primary",
    "defaultSelected": true,
    "icon": "chart",
    "id": "external-dashboard",
    "inactiveClassName": "bp3-minimal",
    "permissions": Array [
      "dashboard_af",
      "dashboard_cf",
      "dashboard_warrant",
      "dashboard_KPI",
      "dashboard_alarm",
      "dashboard_license",
      "dashboard_sh",
      "dashboard_admin",
    ],
    "route": "/external/dashboard",
    "text": "Dashboard",
  },
  Object {
    "className": "bp3-intent-primary",
    "defaultSelected": true,
    "icon": "dashboard",
    "id": "xms_monitoring",
    "inactiveClassName": "bp3-minimal",
    "permissions": Array [
      "dashboard_access",
    ],
    "route": "/xms/monitoring",
    "text": "Monitoring",
    "url": "/#!monitoring",
  },
  Object {
    "className": "bp3-intent-primary",
    "defaultSelected": true,
    "icon": "pulse",
    "id": "xms_system_health",
    "inactiveClassName": "bp3-minimal",
    "permissions": Array [
      "sh_access",
    ],
    "route": "/xms/systemhealth",
    "text": "System Health",
    "url": "/#!systemHealth",
  },
  Object {
    "className": "bp3-intent-primary",
    "defaultSelected": true,
    "icon": <span
      className="bp3-icon"
    >
      <svg
        height="17"
        style={
          Object {
            "fill": "currentColor",
          }
        }
        viewBox="0 0 15 17"
        width="15"
        xmlns="http://www.w3.org/2000/svg"
      >
        <path
          d="M7.47 3.3724C7.71876 3.3724 7.92043 3.18571 7.92043 2.95545V1.28767C7.92043 1.05741 7.71876 0.870728 7.47 0.870728C7.22124 0.870728 7.01956 1.05741 7.01956 1.28767V2.95545C7.01956 3.18571 7.22124 3.3724 7.47 3.3724Z"
        />
        <path
          d="M3.92339 3.96171C4.04816 4.16176 4.32385 4.22911 4.53867 4.11431C4.75412 3.99918 4.82793 3.74418 4.70353 3.54477L3.80267 2.10044C3.67827 1.901 3.40282 1.83271 3.18739 1.94784C2.97194 2.06297 2.89813 2.31798 3.02254 2.51739L3.92339 3.96171Z"
        />
        <path
          d="M2.40092 6.11356C2.52532 5.91415 2.45151 5.65915 2.23606 5.54401L0.675722 4.71012C0.460268 4.59496 0.184787 4.66328 0.0604394 4.86272C-0.0639685 5.06213 0.00984144 5.31714 0.225296 5.43227L1.78563 6.26616C2.00013 6.38082 2.276 6.31386 2.40092 6.11356Z"
        />
        <path
          d="M10.4613 4.11434C10.6758 4.229 10.9517 4.16201 11.0766 3.96174L11.9774 2.51741C12.1018 2.318 12.028 2.063 11.8126 1.94787C11.5971 1.83268 11.3216 1.90103 11.1973 2.10047L10.2964 3.54479C10.172 3.7442 10.2458 3.9992 10.4613 4.11434Z"
        />
        <path
          d="M14.9396 4.86276C14.8151 4.66332 14.5397 4.59505 14.3243 4.71016L12.7639 5.54405C12.5485 5.65918 12.4747 5.91418 12.5991 6.11359C12.7238 6.31364 12.9995 6.38099 13.2144 6.26619L14.7747 5.4323C14.9901 5.31717 15.064 5.0622 14.9396 4.86276Z"
        />
        <path
          clipRule="evenodd"
          d="M13.125 15.1024C12.6094 15.1024 12.1875 14.6755 12.1875 14.1536V10.3585C12.1875 8.05298 10.5656 6.13644 8.41874 5.70949C8.41874 5.67154 8.43749 5.65256 8.43749 5.61461C8.43749 5.09278 8.01561 4.66583 7.49999 4.66583C6.98437 4.66583 6.56249 5.09278 6.56249 5.61461C6.56249 5.65256 6.58124 5.67154 6.58124 5.70949C4.43437 6.13644 2.8125 8.05298 2.8125 10.3585V14.1536C2.8125 14.6755 2.39062 15.1024 1.875 15.1024C1.35937 15.1024 0.9375 15.5294 0.9375 16.0512C0.9375 16.573 1.35937 17 1.875 17H13.125C13.6406 17 14.0625 16.573 14.0625 16.0512C14.0625 15.5294 13.6406 15.1024 13.125 15.1024Z"
          fillRule="evenodd"
        />
        <path
          d="M7.50002 4.66583C4.91534 4.66583 2.81253 6.15056 2.81253 7.97553V11.3073H12.1875V7.97553C12.1875 6.15056 10.0847 4.66583 7.50002 4.66583Z"
        />
      </svg>
    </span>,
    "id": "xms_alarm",
    "inactiveClassName": "bp3-minimal",
    "permissions": Array [
      "alarm_access",
    ],
    "route": "/xms/alarm",
    "text": "Alarm",
    "url": "/#!alarm",
  },
  Object {
    "children": Array [
      Object {
        "className": "bp3-intent-primary",
        "icon": "intersection",
        "id": "users",
        "inactiveClassName": "bp3-minimal",
        "permissions": Array [
          "user_view",
        ],
        "route": "/users",
        "text": "Users",
      },
      Object {
        "className": "bp3-intent-primary",
        "icon": "history",
        "id": "teams",
        "inactiveClassName": "bp3-minimal",
        "permissions": Array [
          "team_view",
        ],
        "route": "/teams",
        "text": "Teams",
      },
      Object {
        "className": "bp3-intent-primary",
        "icon": "tag",
        "id": "roles",
        "inactiveClassName": "bp3-minimal",
        "permissions": Array [
          "userrole_view",
        ],
        "route": "/roles",
        "text": "Roles",
      },
    ],
    "className": "bp3-minimal",
    "icon": "people",
    "id": "people",
    "permissions": Array [
      "user_view",
      "userrole_view",
      "team_view",
      "policy_view",
      "audit_view",
      "contacts_view",
    ],
    "route": "/users",
    "text": "People",
  },
  Object {
    "children": Array [
      Object {
        "className": "bp3-intent-primary",
        "icon": "highlight",
        "id": "userAudit",
        "inactiveClassName": "bp3-minimal",
        "permissions": Array [
          "audit_log_view",
        ],
        "route": "/userAudit",
        "text": "User Audit",
      },
      Object {
        "className": "bp3-intent-primary",
        "icon": "search-around",
        "id": "general",
        "inactiveClassName": "bp3-minimal",
        "permissions": Array [
          "audit_log_view",
        ],
        "route": "/audit",
        "text": "General Audit",
      },
    ],
    "className": "bp3-minimal",
    "icon": "th-list",
    "id": "audit",
    "permissions": Array [
      "audit_log_view",
      "audit_log_delete",
    ],
    "route": "/userAudit",
    "text": "Audit",
  },
  Object {
    "children": Array [
      Object {
        "className": "bp3-intent-primary",
        "icon": "settings",
        "id": "xms_system_conf",
        "inactiveClassName": "bp3-minimal",
        "permissions": Array [
          "br_access",
          "dfsubsys_access",
          "mml_access",
          "wt_access",
        ],
        "route": "/systemSettings/xms",
        "text": "System Configuration",
        "url": "/#!sysconfhome",
      },
      Object {
        "className": "bp3-intent-primary",
        "icon": "search-around",
        "id": "ss8_distributors",
        "inactiveClassName": "bp3-minimal",
        "permissions": Array [
          "dc_access",
        ],
        "route": "/systemSettings/distributors",
        "text": "SS8 Distributors",
      },
    ],
    "className": "bp3-intent-primary",
    "defaultSelected": true,
    "icon": "settings",
    "id": "systemSettings",
    "inactiveClassName": "bp3-minimal",
    "permissions": Array [
      "br_access",
      "dfsubsys_access",
      "mml_access",
      "wt_access",
      "dc_access",
      "tp_access",
    ],
    "route": "/systemSettings",
    "text": "Settings",
  },
  Object {
    "children": Array [],
    "className": "bp3-minimal",
    "icon": "pivot",
    "id": "distribution",
    "permissions": Array [],
    "route": "/",
    "text": "Distribution Functions",
  },
]
`;

exports[`navbarConfig should return the enable nav configs without the external dashboard and with the security gateway 1`] = `
Array [
  Object {
    "children": Array [
      Object {
        "className": "bp3-intent-primary",
        "icon": "intersection",
        "id": "warrants",
        "inactiveClassName": "bp3-minimal",
        "permissions": Array [
          "warrant_view",
        ],
        "route": "/warrants",
        "text": "Warrants",
      },
      Object {
        "className": "bp3-intent-primary",
        "icon": "history",
        "id": "cases",
        "inactiveClassName": "bp3-minimal",
        "permissions": Array [
          "warrant_view",
          "contacts_view",
        ],
        "route": "/cases",
        "text": "Cases",
      },
      Object {
        "className": "bp3-intent-primary",
        "icon": "tag",
        "id": "wiretaps",
        "inactiveClassName": "bp3-minimal",
        "permissions": Array [
          "warrant_view",
          "contacts_view",
        ],
        "route": "/wiretaps",
        "text": "Wiretaps",
      },
    ],
    "className": "bp3-intent-primary",
    "defaultSelected": true,
    "icon": <span
      className="bp3-icon"
    >
      <svg
        height="16"
        style={
          Object {
            "fill": "currentColor",
          }
        }
        viewBox="0 0 17 16"
        width="17"
        xmlns="http://www.w3.org/2000/svg"
      >
        <path
          clipRule="evenodd"
          d="M8.5 16C12.9183 16 16.5 12.4183 16.5 8C16.5 3.58172 12.9183 0 8.5 0C4.08172 0 0.5 3.58172 0.5 8C0.5 12.4183 4.08172 16 8.5 16ZM7.87753 8.0033C7.87753 7.65866 8.15835 7.37668 8.50156 7.37668C8.84477 7.37668 9.12558 7.65866 9.12558 8.0033C9.12558 8.34794 8.84477 8.62992 8.50156 8.62992C8.15835 8.62992 7.87753 8.34794 7.87753 8.0033ZM13.4938 7.97197V7.9845C13.4938 7.98763 13.4953 7.9892 13.4969 7.99077C13.4984 7.99233 13.5 7.9939 13.5 7.99703V8.01583V8.02836V8.03463V8.04716V8.05969C13.4875 8.14115 13.4501 8.22262 13.3939 8.28528C13.2914 8.41854 13.1772 8.54594 13.0682 8.66749L13.0569 8.68005C12.4329 9.36307 11.7153 9.97089 10.9353 10.4158C10.4298 10.6978 9.89938 10.9234 9.34399 11.0361C8.73245 11.1615 8.1209 11.1552 7.5156 11.0111C6.46724 10.7667 5.51872 10.1526 4.68877 9.41946C4.30187 9.08109 3.92122 8.71138 3.60296 8.29154C3.46568 8.10982 3.46568 7.89051 3.60296 7.70879C3.68351 7.60412 3.76765 7.50668 3.85265 7.40823C3.87961 7.37701 3.90665 7.3457 3.9337 7.31401C4.55772 6.631 5.27535 6.02317 6.05538 5.57827C6.56084 5.29629 7.09126 5.07071 7.64665 4.95791C8.25819 4.83886 8.86349 4.84512 9.47504 4.99551C10.5234 5.23989 11.4719 5.85398 12.3019 6.58713C12.6888 6.92551 13.0694 7.29522 13.3877 7.71505C13.4438 7.77771 13.4813 7.85291 13.4938 7.94064V7.95317V7.9657V7.97197ZM6.62949 8.0033C6.62949 9.04349 7.46568 9.88316 8.50156 9.88316C9.53744 9.88316 10.3736 9.04349 10.3736 8.0033C10.3736 6.96311 9.53744 6.12343 8.50156 6.12343C7.46568 6.12343 6.62949 6.96311 6.62949 8.0033Z"
          fillRule="evenodd"
        />
      </svg>
    </span>,
    "id": "intercepts",
    "inactiveClassName": "bp3-minimal",
    "permissions": Array [
      "warrant_view",
      "contacts_view",
    ],
    "route": "/warrants",
    "text": "Intercepts",
  },
  Object {
    "children": Array [
      Object {
        "className": "bp3-intent-primary",
        "icon": <svg
          height="16"
          style={
            Object {
              "fill": "currentColor",
            }
          }
          viewBox="0 0 15 16"
          width="15"
          xmlns="http://www.w3.org/2000/svg"
        >
          <path
            d="M4.82179 2.10363C4.77243 2.05291 4.71341 2.0126 4.64821 1.98507C4.58301 1.95754 4.51295 1.94336 4.44218 1.94336C4.3714 1.94336 4.30135 1.95754 4.23615 1.98507C4.17095 2.0126 4.11193 2.05291 4.06257 2.10363C3.64777 2.517 3.31864 3.00818 3.09408 3.54901C2.86951 4.08984 2.75391 4.66968 2.75391 5.25528C2.75391 5.84088 2.86951 6.42072 3.09408 6.96155C3.31864 7.50238 3.64777 7.99356 4.06257 8.40693C4.16036 8.50673 4.29363 8.56384 4.43335 8.56583C4.53853 8.56787 4.64193 8.53854 4.73038 8.48159C4.81882 8.42464 4.88831 8.34264 4.92998 8.24605C4.97164 8.14945 4.98361 8.04264 4.96434 7.93922C4.94507 7.83581 4.89545 7.74047 4.82179 7.66536C4.50309 7.35011 4.25008 6.97477 4.0774 6.56108C3.90473 6.14739 3.81582 5.70356 3.81582 5.25528C3.81582 4.807 3.90473 4.36317 4.0774 3.94948C4.25008 3.53579 4.50309 3.16045 4.82179 2.8452C4.91485 2.74414 4.96651 2.61179 4.96651 2.47442C4.96651 2.33704 4.91485 2.20469 4.82179 2.10363Z"
          />
          <path
            d="M10.3833 2.10363C10.334 2.05291 10.275 2.0126 10.2098 1.98507C10.1446 1.95754 10.0745 1.94336 10.0037 1.94336C9.93305 1.94336 9.86295 1.95754 9.79775 1.98507C9.73255 2.0126 9.67355 2.05291 9.62415 2.10363C9.53111 2.20469 9.47945 2.33704 9.47945 2.47442C9.47945 2.61179 9.53111 2.74414 9.62415 2.8452C9.94285 3.16045 10.1958 3.53579 10.3685 3.94948C10.5412 4.36317 10.6301 4.807 10.6301 5.25528C10.6301 5.70356 10.5412 6.14739 10.3685 6.56108C10.1958 6.97477 9.94285 7.35011 9.62415 7.66536C9.55051 7.74047 9.50089 7.83581 9.48162 7.93922C9.46235 8.04264 9.47431 8.14945 9.51598 8.24605C9.55765 8.34264 9.62715 8.42464 9.71555 8.48159C9.80405 8.53854 9.90745 8.56787 10.0126 8.56583C10.1523 8.56384 10.2855 8.50673 10.3833 8.40693C10.7981 7.99356 11.1273 7.50238 11.3518 6.96155C11.5764 6.42072 11.692 5.84088 11.692 5.25528C11.692 4.66968 11.5764 4.08984 11.3518 3.54901C11.1273 3.00818 10.7981 2.517 10.3833 2.10363Z"
          />
          <path
            d="M2.86185 9.60848C1.70927 8.45328 1.06198 6.88806 1.06198 5.25621C1.06198 3.62436 1.70927 2.05914 2.86185 0.903939C2.91257 0.854581 2.95289 0.795559 2.98042 0.730359C3.00794 0.665158 3.02213 0.595103 3.02213 0.524329C3.02213 0.453556 3.00794 0.383501 2.98042 0.3183C2.95289 0.2531 2.91257 0.194078 2.86185 0.14472C2.7608 0.0516585 2.62845 0 2.49107 0C2.35369 0 2.22134 0.0516585 2.12029 0.14472C1.44816 0.81548 0.91493 1.61221 0.551101 2.48931C0.187273 3.36641 0 4.30665 0 5.25621C0 6.20577 0.187273 7.14602 0.551101 8.02311C0.91493 8.90021 1.44816 9.69694 2.12029 10.3677C2.22311 10.4571 2.3548 10.5064 2.49107 10.5064C2.62734 10.5064 2.75903 10.4571 2.86185 10.3677C2.91257 10.3183 2.95289 10.2593 2.98042 10.1941C3.00794 10.1289 3.02213 10.0589 3.02213 9.98809C3.02213 9.91732 3.00794 9.84726 2.98042 9.78206C2.95289 9.71686 2.91257 9.65784 2.86185 9.60848Z"
          />
          <path
            d="M11.5842 0.14472C11.5334 0.194078 11.4931 0.2531 11.4656 0.3183C11.4381 0.383501 11.4239 0.453556 11.4239 0.524329C11.4239 0.595103 11.4381 0.665158 11.4656 0.730359C11.4931 0.795559 11.5334 0.854581 11.5842 0.903939C12.7367 2.05914 13.384 3.62436 13.384 5.25621C13.384 6.88806 12.7367 8.45328 11.5842 9.60848C11.5334 9.65784 11.4931 9.71686 11.4656 9.78206C11.4381 9.84726 11.4239 9.91732 11.4239 9.98809C11.4239 10.0589 11.4381 10.1289 11.4656 10.1941C11.4931 10.2593 11.5334 10.3183 11.5842 10.3677C11.687 10.4571 11.8187 10.5064 11.9549 10.5064C12.0912 10.5064 12.2229 10.4571 12.3257 10.3677C12.9978 9.69694 13.5311 8.90021 13.8949 8.02311C14.2587 7.14602 14.446 6.20577 14.446 5.25621C14.446 4.30665 14.2587 3.36641 13.8949 2.48931C13.5311 1.61221 12.9978 0.81548 12.3257 0.14472C12.2247 0.0516585 12.0923 0 11.9549 0C11.8176 0 11.6852 0.0516585 11.5842 0.14472Z"
          />
          <path
            d="M8.40504 6.80108L8.59925 6.62451C8.78263 6.44582 8.92738 6.23139 9.02457 5.99451C9.12175 5.75763 9.16929 5.50332 9.16426 5.24733C9.16527 4.99189 9.11589 4.73877 9.01893 4.50245C8.92198 4.26613 8.77937 4.05126 8.59925 3.87014C8.23244 3.50784 7.73763 3.30469 7.22206 3.30469C6.7065 3.30469 6.21169 3.50784 5.84488 3.87014C5.66337 4.05062 5.51933 4.26521 5.42104 4.50156C5.32276 4.73791 5.27216 4.99135 5.27216 5.24733C5.27216 5.5033 5.32276 5.75674 5.42104 5.99309C5.51933 6.22944 5.66337 6.44403 5.84488 6.62451L6.03909 6.80108L2.98456 13.793C2.95508 13.8566 2.93854 13.9256 2.93592 13.9957C2.93329 14.0658 2.94463 14.1358 2.96927 14.2015C2.99391 14.2672 3.03137 14.3273 3.07946 14.3785C3.12755 14.4296 3.18531 14.4706 3.2494 14.4992L3.46128 14.5345C3.56537 14.534 3.66718 14.5039 3.75474 14.4476C3.8423 14.3913 3.912 14.3112 3.95565 14.2167L4.55597 12.8219L6.69238 14.1814V15.4703C6.69238 15.5399 6.70608 15.6087 6.7327 15.673C6.75932 15.7373 6.79833 15.7957 6.84752 15.8449C6.89671 15.894 6.9551 15.9331 7.01936 15.9597C7.08363 15.9863 7.15251 16 7.22206 16C7.29162 16 7.3605 15.9863 7.42477 15.9597C7.48903 15.9331 7.54742 15.894 7.59661 15.8449C7.6458 15.7957 7.68481 15.7373 7.71143 15.673C7.73805 15.6087 7.75175 15.5399 7.75175 15.4703V14.1814L9.88815 12.8219L10.4884 14.2167C10.5321 14.3112 10.6018 14.3913 10.6893 14.4476C10.7769 14.5039 10.8787 14.534 10.9828 14.5345L11.1947 14.4992C11.2588 14.4706 11.3165 14.4296 11.3646 14.3785C11.4127 14.3273 11.4502 14.2672 11.4748 14.2015C11.4994 14.1358 11.5108 14.0658 11.5082 13.9957C11.5055 13.9256 11.489 13.8566 11.4595 13.793L8.40504 6.80108ZM6.58644 4.62936C6.75522 4.46116 6.98379 4.36671 7.22206 4.36671C7.46034 4.36671 7.68891 4.46116 7.85769 4.62936C8.01756 4.79521 8.10626 5.01697 8.10488 5.24733C8.10715 5.48308 8.01864 5.71067 7.85769 5.88295C7.68891 6.05115 7.46034 6.14559 7.22206 6.14559C6.98379 6.14559 6.75522 6.05115 6.58644 5.88295C6.42356 5.71495 6.33248 5.49015 6.33248 5.25615C6.33248 5.02216 6.42356 4.79735 6.58644 4.62936ZM4.99737 11.8508L6.69238 7.96639V12.9278L4.99737 11.8508ZM7.75175 12.9278V7.96639L9.44676 11.8331L7.75175 12.9278Z"
          />
        </svg>,
        "id": "afs",
        "inactiveClassName": "bp3-minimal",
        "permissions": Array [
          "af_write",
        ],
        "route": "/afs",
        "text": "4G & 5G Access Function",
      },
      Object {
        "className": "bp3-intent-primary",
        "icon": <svg
          fill="none"
          height="16"
          style={
            Object {
              "fill": "currentColor",
            }
          }
          viewBox="0 0 16 16"
          width="16"
          xmlns="http://www.w3.org/2000/svg"
        >
          <path
            d="M5.71534 2.95678C5.64062 2.87922 5.5413 2.83594 5.438 2.83594C5.3347 2.83594 5.23538 2.87922 5.16066 2.95678C4.40614 3.7795 3.98243 4.89401 3.98243 6.05596C3.98243 7.2179 4.40614 8.33242 5.16066 9.1551C5.23755 9.21972 5.33131 9.25616 5.42844 9.2591C5.53147 9.25634 5.63139 9.22016 5.71534 9.1551C5.77901 9.06985 5.81378 8.96337 5.81378 8.85353C5.81378 8.74369 5.77901 8.6372 5.71534 8.55193C5.41172 8.22337 5.1708 7.8328 5.00641 7.40269C4.84201 6.97256 4.75738 6.51135 4.75738 6.04556C4.75738 5.57976 4.84201 5.11855 5.00641 4.68843C5.1708 4.2583 5.41172 3.86774 5.71534 3.53918C5.78121 3.4591 5.81762 3.35542 5.81762 3.24798C5.81762 3.14054 5.78121 3.03686 5.71534 2.95678Z"
            strokeWidth="0.3"
          />
          <path
            d="M10.7366 2.95678C10.6698 3.03686 10.6328 3.14054 10.6328 3.24798C10.6328 3.35542 10.6698 3.4591 10.7366 3.53918C12.2898 5.20317 12.2898 6.88795 10.7366 8.55193C10.672 8.6372 10.6367 8.74369 10.6367 8.85353C10.6367 8.96337 10.672 9.06985 10.7366 9.1551C10.8219 9.22016 10.9233 9.25634 11.0278 9.2591C11.1264 9.25616 11.2216 9.21972 11.2996 9.1551C13.1634 7.15835 13.1634 4.95357 11.2996 2.95678C11.2238 2.87922 11.123 2.83594 11.0181 2.83594C10.9133 2.83594 10.8124 2.87922 10.7366 2.95678Z"
            strokeWidth="0.3"
          />
          <path
            d="M3.87016 1.11851C3.78832 1.04244 3.67953 1 3.56639 1C3.45325 1 3.34446 1.04244 3.26261 1.11851C1.7961 2.56679 1 4.25986 1 6.05493C1 7.84998 1.7961 9.54302 3.26261 10.9709C3.33997 11.0478 3.44539 11.0918 3.55592 11.0933C3.61416 11.0953 3.67218 11.0855 3.7263 11.0644C3.7804 11.0433 3.82941 11.0114 3.87016 10.9709C3.94231 10.8924 3.9822 10.7907 3.9822 10.6853C3.9822 10.58 3.94231 10.4783 3.87016 10.3998C2.55031 9.11467 1.838 7.6052 1.838 6.05493C1.838 4.50464 2.55031 2.97477 3.87016 1.68966C3.94231 1.61112 3.9822 1.50945 3.9822 1.40408C3.9822 1.29871 3.94231 1.19704 3.87016 1.11851Z"
            strokeWidth="0.3"
          />
          <path
            d="M13.1883 1.11821C13.1064 1.04233 12.9976 1 12.8846 1C12.7714 1 12.6626 1.04233 12.5807 1.11821C12.5086 1.19654 12.4687 1.29795 12.4687 1.40305C12.4687 1.50814 12.5086 1.60956 12.5807 1.68789C13.9006 2.96969 14.6129 4.45494 14.6129 5.9402C14.6129 7.42546 13.9006 8.89037 12.5807 10.1721C12.5086 10.2505 12.4687 10.3519 12.4687 10.4569C12.4687 10.5621 12.5086 10.6635 12.5807 10.7418C12.6215 10.7823 12.6705 10.814 12.7246 10.8351C12.7787 10.8561 12.8367 10.8659 12.895 10.8639C13.0055 10.8624 13.111 10.8185 13.1883 10.7418C14.6548 9.3176 15.4509 7.64926 15.4509 5.9402C15.4509 4.23114 14.6548 2.56277 13.1883 1.11821Z"
            strokeWidth="0.3"
          />
          <path
            d="M8.21497 4.22656C7.76575 4.24171 7.33701 4.39838 7.00728 4.70384C6.67755 5.00932 6.4689 5.42335 6.41953 5.87011C6.37016 6.31688 6.48339 6.76648 6.73848 7.13656C6.99355 7.50666 7.37342 7.77248 7.80849 7.88535V14.8158C7.80849 14.9235 7.85132 15.0269 7.92755 15.1031C8.00378 15.1794 8.10717 15.2222 8.21497 15.2222C8.32278 15.2222 8.42616 15.1794 8.5024 15.1031C8.57863 15.0269 8.62144 14.9235 8.62144 14.8158V7.90568C9.05655 7.7928 9.43638 7.52698 9.69149 7.15689C9.94651 6.7868 10.0597 6.3372 10.0104 5.89044C9.961 5.44368 9.75238 5.02965 9.42269 4.72417C9.09291 4.4187 8.6642 4.24171 8.21497 4.22656ZM8.21497 7.11304C8.00595 7.11304 7.80162 7.05106 7.62783 6.93494C7.45403 6.81881 7.31857 6.65376 7.23858 6.46064C7.15859 6.26753 7.13767 6.05504 7.17844 5.85003C7.21922 5.64503 7.31987 5.45672 7.46768 5.30891C7.61548 5.16112 7.80379 5.06046 8.00879 5.01968C8.2138 4.9789 8.4263 4.99984 8.61941 5.07982C8.81252 5.15981 8.97753 5.29527 9.09371 5.46906C9.2098 5.64286 9.27184 5.84719 9.27184 6.05621C9.27184 6.195 9.24447 6.33242 9.1914 6.46064C9.13824 6.58887 9.06038 6.70537 8.96224 6.80351C8.86413 6.90164 8.74763 6.97949 8.61941 7.0326C8.49119 7.08571 8.35376 7.11304 8.21497 7.11304Z"
            strokeWidth="0.3"
          />
        </svg>,
        "id": "xms_af",
        "inactiveClassName": "bp3-minimal",
        "permissions": Array [
          "af_write",
        ],
        "route": "/afs/xms",
        "text": "3G Access Function",
        "url": "/#!af",
      },
    ],
    "className": "bp3-intent-primary",
    "defaultSelected": true,
    "icon": <span
      className="bp3-icon"
    >
      <svg
        height="16"
        style={
          Object {
            "fill": "currentColor",
          }
        }
        viewBox="0 0 16 16"
        width="16"
        xmlns="http://www.w3.org/2000/svg"
      >
        <path
          clipRule="evenodd"
          d="M15 0H1C0.45 0 0 0.192857 0 0.428571V5.57143C0 5.80714 0.45 6 1 6H15C15.55 6 16 5.80714 16 5.57143V0.428571C16 0.192857 15.55 0 15 0ZM8.5 3H13.5C13.78 3 14 2.78 14 2.5C14 2.22 13.78 2 13.5 2H8.5C8.22 2 8 2.22 8 2.5C8 2.78 8.22 3 8.5 3ZM2 2.5C2 2.22386 2.22386 2 2.5 2H3.5C3.77614 2 4 2.22386 4 2.5C4 2.77614 3.77614 3 3.5 3H2.5C2.22386 3 2 2.77614 2 2.5Z"
          fillRule="evenodd"
        />
        <path
          clipRule="evenodd"
          d="M7.5 6L7.5 14C7.5 14.56 7.72 15 8 15C8.28 15 8.5 14.56 8.5 14L8.5 6C8.5 5.44 8.28 5 8 5C7.72 5 7.5 5.44 7.5 6Z"
          fillRule="evenodd"
        />
        <path
          clipRule="evenodd"
          d="M11.5 13H4.5C4.225 13 4 13.0964 4 13.2143V15.7857C4 15.9036 4.225 16 4.5 16H11.5C11.775 16 12 15.9036 12 15.7857V13.2143C12 13.0964 11.775 13 11.5 13Z"
          fillRule="evenodd"
        />
        <line
          strokeLinecap="round"
          strokeLinejoin="round"
          x1="0.5"
          x2="15.5"
          y1="14.5"
          y2="14.5"
        />
        <path
          clipRule="evenodd"
          d="M9.75 9H6.25C6.1125 9 6 9.16071 6 9.35714V13.6429C6 13.8393 6.1125 14 6.25 14H9.75C9.8875 14 10 13.8393 10 13.6429V9.35714C10 9.16071 9.8875 9 9.75 9Z"
          fillRule="evenodd"
        />
      </svg>
    </span>,
    "id": "accessFunction",
    "inactiveClassName": "bp3-minimal",
    "permissions": Array [
      "af_write",
    ],
    "route": "/afs",
    "text": "Access Function",
  },
  Object {
    "className": "bp3-intent-primary",
    "defaultSelected": true,
    "icon": "badge",
    "id": "cfs",
    "inactiveClassName": "bp3-minimal",
    "permissions": Array [
      "cf_write",
    ],
    "route": "/cfs",
    "text": "Collection Function",
  },
  Object {
    "className": "bp3-intent-primary",
    "defaultSelected": true,
    "icon": <span
      className="bp3-icon"
    >
      <svg
        height="16"
        style={
          Object {
            "fill": "currentColor",
          }
        }
        viewBox="0 0 16 16"
        width="16"
        xmlns="http://www.w3.org/2000/svg"
      >
        <path
          clipRule="evenodd"
          d="M9 0H3C2.45 0 2 0.45 2 1V15C2 15.55 2.45 16 3 16H13C13.55 16 14 15.55 14 15V5L9 0ZM12 14H4V2H8V6H12V14Z"
          fillRule="evenodd"
        />
        <path
          clipRule="evenodd"
          d="M10.5714 11H5.42857C5.19286 11 5 11.225 5 11.5C5 11.775 5.19286 12 5.42857 12H10.5714C10.8071 12 11 11.775 11 11.5C11 11.225 10.8071 11 10.5714 11ZM5.375 8H10.625C10.8313 8 11 7.775 11 7.5C11 7.225 10.8313 7 10.625 7H5.375C5.16875 7 5 7.225 5 7.5C5 7.775 5.16875 8 5.375 8ZM10.625 9H5.375C5.16875 9 5 9.225 5 9.5C5 9.775 5.16875 10 5.375 10H10.625C10.8313 10 11 9.775 11 9.5C11 9.225 10.8313 9 10.625 9Z"
          fillRule="evenodd"
        />
      </svg>
    </span>,
    "id": "xms_reports",
    "inactiveClassName": "bp3-minimal",
    "permissions": Array [
      "af_report",
      "cf_report",
      "warrant_report",
      "stat_report",
    ],
    "route": "/xms/reports",
    "text": "Reports",
    "url": "/#!reports",
  },
  Object {
    "className": "bp3-intent-primary",
    "defaultSelected": true,
    "icon": "dashboard",
    "id": "xms_monitoring",
    "inactiveClassName": "bp3-minimal",
    "permissions": Array [
      "dashboard_access",
    ],
    "route": "/xms/monitoring",
    "text": "Monitoring",
    "url": "/#!monitoring",
  },
  Object {
    "className": "bp3-intent-primary",
    "defaultSelected": true,
    "icon": "pulse",
    "id": "xms_system_health",
    "inactiveClassName": "bp3-minimal",
    "permissions": Array [
      "sh_access",
    ],
    "route": "/xms/systemhealth",
    "text": "System Health",
    "url": "/#!systemHealth",
  },
  Object {
    "className": "bp3-intent-primary",
    "defaultSelected": true,
    "icon": <span
      className="bp3-icon"
    >
      <svg
        height="17"
        style={
          Object {
            "fill": "currentColor",
          }
        }
        viewBox="0 0 15 17"
        width="15"
        xmlns="http://www.w3.org/2000/svg"
      >
        <path
          d="M7.47 3.3724C7.71876 3.3724 7.92043 3.18571 7.92043 2.95545V1.28767C7.92043 1.05741 7.71876 0.870728 7.47 0.870728C7.22124 0.870728 7.01956 1.05741 7.01956 1.28767V2.95545C7.01956 3.18571 7.22124 3.3724 7.47 3.3724Z"
        />
        <path
          d="M3.92339 3.96171C4.04816 4.16176 4.32385 4.22911 4.53867 4.11431C4.75412 3.99918 4.82793 3.74418 4.70353 3.54477L3.80267 2.10044C3.67827 1.901 3.40282 1.83271 3.18739 1.94784C2.97194 2.06297 2.89813 2.31798 3.02254 2.51739L3.92339 3.96171Z"
        />
        <path
          d="M2.40092 6.11356C2.52532 5.91415 2.45151 5.65915 2.23606 5.54401L0.675722 4.71012C0.460268 4.59496 0.184787 4.66328 0.0604394 4.86272C-0.0639685 5.06213 0.00984144 5.31714 0.225296 5.43227L1.78563 6.26616C2.00013 6.38082 2.276 6.31386 2.40092 6.11356Z"
        />
        <path
          d="M10.4613 4.11434C10.6758 4.229 10.9517 4.16201 11.0766 3.96174L11.9774 2.51741C12.1018 2.318 12.028 2.063 11.8126 1.94787C11.5971 1.83268 11.3216 1.90103 11.1973 2.10047L10.2964 3.54479C10.172 3.7442 10.2458 3.9992 10.4613 4.11434Z"
        />
        <path
          d="M14.9396 4.86276C14.8151 4.66332 14.5397 4.59505 14.3243 4.71016L12.7639 5.54405C12.5485 5.65918 12.4747 5.91418 12.5991 6.11359C12.7238 6.31364 12.9995 6.38099 13.2144 6.26619L14.7747 5.4323C14.9901 5.31717 15.064 5.0622 14.9396 4.86276Z"
        />
        <path
          clipRule="evenodd"
          d="M13.125 15.1024C12.6094 15.1024 12.1875 14.6755 12.1875 14.1536V10.3585C12.1875 8.05298 10.5656 6.13644 8.41874 5.70949C8.41874 5.67154 8.43749 5.65256 8.43749 5.61461C8.43749 5.09278 8.01561 4.66583 7.49999 4.66583C6.98437 4.66583 6.56249 5.09278 6.56249 5.61461C6.56249 5.65256 6.58124 5.67154 6.58124 5.70949C4.43437 6.13644 2.8125 8.05298 2.8125 10.3585V14.1536C2.8125 14.6755 2.39062 15.1024 1.875 15.1024C1.35937 15.1024 0.9375 15.5294 0.9375 16.0512C0.9375 16.573 1.35937 17 1.875 17H13.125C13.6406 17 14.0625 16.573 14.0625 16.0512C14.0625 15.5294 13.6406 15.1024 13.125 15.1024Z"
          fillRule="evenodd"
        />
        <path
          d="M7.50002 4.66583C4.91534 4.66583 2.81253 6.15056 2.81253 7.97553V11.3073H12.1875V7.97553C12.1875 6.15056 10.0847 4.66583 7.50002 4.66583Z"
        />
      </svg>
    </span>,
    "id": "xms_alarm",
    "inactiveClassName": "bp3-minimal",
    "permissions": Array [
      "alarm_access",
    ],
    "route": "/xms/alarm",
    "text": "Alarm",
    "url": "/#!alarm",
  },
  Object {
    "children": Array [
      Object {
        "className": "bp3-intent-primary",
        "icon": "intersection",
        "id": "users",
        "inactiveClassName": "bp3-minimal",
        "permissions": Array [
          "user_view",
        ],
        "route": "/users",
        "text": "Users",
      },
      Object {
        "className": "bp3-intent-primary",
        "icon": "history",
        "id": "teams",
        "inactiveClassName": "bp3-minimal",
        "permissions": Array [
          "team_view",
        ],
        "route": "/teams",
        "text": "Teams",
      },
      Object {
        "className": "bp3-intent-primary",
        "icon": "tag",
        "id": "roles",
        "inactiveClassName": "bp3-minimal",
        "permissions": Array [
          "userrole_view",
        ],
        "route": "/roles",
        "text": "Roles",
      },
    ],
    "className": "bp3-minimal",
    "icon": "people",
    "id": "people",
    "permissions": Array [
      "user_view",
      "userrole_view",
      "team_view",
      "policy_view",
      "audit_view",
      "contacts_view",
    ],
    "route": "/users",
    "text": "People",
  },
  Object {
    "children": Array [
      Object {
        "className": "bp3-intent-primary",
        "icon": "highlight",
        "id": "userAudit",
        "inactiveClassName": "bp3-minimal",
        "permissions": Array [
          "audit_log_view",
        ],
        "route": "/userAudit",
        "text": "User Audit",
      },
      Object {
        "className": "bp3-intent-primary",
        "icon": "search-around",
        "id": "general",
        "inactiveClassName": "bp3-minimal",
        "permissions": Array [
          "audit_log_view",
        ],
        "route": "/audit",
        "text": "General Audit",
      },
    ],
    "className": "bp3-minimal",
    "icon": "th-list",
    "id": "audit",
    "permissions": Array [
      "audit_log_view",
      "audit_log_delete",
    ],
    "route": "/userAudit",
    "text": "Audit",
  },
  Object {
    "children": Array [
      Object {
        "className": "bp3-intent-primary",
        "icon": "settings",
        "id": "xms_system_conf",
        "inactiveClassName": "bp3-minimal",
        "permissions": Array [
          "br_access",
          "dfsubsys_access",
          "mml_access",
          "wt_access",
        ],
        "route": "/systemSettings/xms",
        "text": "System Configuration",
        "url": "/#!sysconfhome",
      },
      Object {
        "className": "bp3-intent-primary",
        "icon": "shield",
        "id": "securityGateway",
        "inactiveClassName": "bp3-minimal",
        "permissions": Array [
          "tp_access",
        ],
        "route": "/systemSettings/securityGateway",
        "text": "Security Gateway",
      },
      Object {
        "className": "bp3-intent-primary",
        "icon": "search-around",
        "id": "ss8_distributors",
        "inactiveClassName": "bp3-minimal",
        "permissions": Array [
          "dc_access",
        ],
        "route": "/systemSettings/distributors",
        "text": "SS8 Distributors",
      },
    ],
    "className": "bp3-intent-primary",
    "defaultSelected": true,
    "icon": "settings",
    "id": "systemSettings",
    "inactiveClassName": "bp3-minimal",
    "permissions": Array [
      "br_access",
      "dfsubsys_access",
      "mml_access",
      "wt_access",
      "dc_access",
      "tp_access",
    ],
    "route": "/systemSettings",
    "text": "Settings",
  },
  Object {
    "children": Array [],
    "className": "bp3-minimal",
    "icon": "pivot",
    "id": "distribution",
    "permissions": Array [],
    "route": "/",
    "text": "Distribution Functions",
  },
]
`;

exports[`navbarConfig should return the enable nav configs without the external dashboard and without the security gateway 1`] = `
Array [
  Object {
    "children": Array [
      Object {
        "className": "bp3-intent-primary",
        "icon": "intersection",
        "id": "warrants",
        "inactiveClassName": "bp3-minimal",
        "permissions": Array [
          "warrant_view",
        ],
        "route": "/warrants",
        "text": "Warrants",
      },
      Object {
        "className": "bp3-intent-primary",
        "icon": "history",
        "id": "cases",
        "inactiveClassName": "bp3-minimal",
        "permissions": Array [
          "warrant_view",
          "contacts_view",
        ],
        "route": "/cases",
        "text": "Cases",
      },
      Object {
        "className": "bp3-intent-primary",
        "icon": "tag",
        "id": "wiretaps",
        "inactiveClassName": "bp3-minimal",
        "permissions": Array [
          "warrant_view",
          "contacts_view",
        ],
        "route": "/wiretaps",
        "text": "Wiretaps",
      },
    ],
    "className": "bp3-intent-primary",
    "defaultSelected": true,
    "icon": <span
      className="bp3-icon"
    >
      <svg
        height="16"
        style={
          Object {
            "fill": "currentColor",
          }
        }
        viewBox="0 0 17 16"
        width="17"
        xmlns="http://www.w3.org/2000/svg"
      >
        <path
          clipRule="evenodd"
          d="M8.5 16C12.9183 16 16.5 12.4183 16.5 8C16.5 3.58172 12.9183 0 8.5 0C4.08172 0 0.5 3.58172 0.5 8C0.5 12.4183 4.08172 16 8.5 16ZM7.87753 8.0033C7.87753 7.65866 8.15835 7.37668 8.50156 7.37668C8.84477 7.37668 9.12558 7.65866 9.12558 8.0033C9.12558 8.34794 8.84477 8.62992 8.50156 8.62992C8.15835 8.62992 7.87753 8.34794 7.87753 8.0033ZM13.4938 7.97197V7.9845C13.4938 7.98763 13.4953 7.9892 13.4969 7.99077C13.4984 7.99233 13.5 7.9939 13.5 7.99703V8.01583V8.02836V8.03463V8.04716V8.05969C13.4875 8.14115 13.4501 8.22262 13.3939 8.28528C13.2914 8.41854 13.1772 8.54594 13.0682 8.66749L13.0569 8.68005C12.4329 9.36307 11.7153 9.97089 10.9353 10.4158C10.4298 10.6978 9.89938 10.9234 9.34399 11.0361C8.73245 11.1615 8.1209 11.1552 7.5156 11.0111C6.46724 10.7667 5.51872 10.1526 4.68877 9.41946C4.30187 9.08109 3.92122 8.71138 3.60296 8.29154C3.46568 8.10982 3.46568 7.89051 3.60296 7.70879C3.68351 7.60412 3.76765 7.50668 3.85265 7.40823C3.87961 7.37701 3.90665 7.3457 3.9337 7.31401C4.55772 6.631 5.27535 6.02317 6.05538 5.57827C6.56084 5.29629 7.09126 5.07071 7.64665 4.95791C8.25819 4.83886 8.86349 4.84512 9.47504 4.99551C10.5234 5.23989 11.4719 5.85398 12.3019 6.58713C12.6888 6.92551 13.0694 7.29522 13.3877 7.71505C13.4438 7.77771 13.4813 7.85291 13.4938 7.94064V7.95317V7.9657V7.97197ZM6.62949 8.0033C6.62949 9.04349 7.46568 9.88316 8.50156 9.88316C9.53744 9.88316 10.3736 9.04349 10.3736 8.0033C10.3736 6.96311 9.53744 6.12343 8.50156 6.12343C7.46568 6.12343 6.62949 6.96311 6.62949 8.0033Z"
          fillRule="evenodd"
        />
      </svg>
    </span>,
    "id": "intercepts",
    "inactiveClassName": "bp3-minimal",
    "permissions": Array [
      "warrant_view",
      "contacts_view",
    ],
    "route": "/warrants",
    "text": "Intercepts",
  },
  Object {
    "children": Array [
      Object {
        "className": "bp3-intent-primary",
        "icon": <svg
          height="16"
          style={
            Object {
              "fill": "currentColor",
            }
          }
          viewBox="0 0 15 16"
          width="15"
          xmlns="http://www.w3.org/2000/svg"
        >
          <path
            d="M4.82179 2.10363C4.77243 2.05291 4.71341 2.0126 4.64821 1.98507C4.58301 1.95754 4.51295 1.94336 4.44218 1.94336C4.3714 1.94336 4.30135 1.95754 4.23615 1.98507C4.17095 2.0126 4.11193 2.05291 4.06257 2.10363C3.64777 2.517 3.31864 3.00818 3.09408 3.54901C2.86951 4.08984 2.75391 4.66968 2.75391 5.25528C2.75391 5.84088 2.86951 6.42072 3.09408 6.96155C3.31864 7.50238 3.64777 7.99356 4.06257 8.40693C4.16036 8.50673 4.29363 8.56384 4.43335 8.56583C4.53853 8.56787 4.64193 8.53854 4.73038 8.48159C4.81882 8.42464 4.88831 8.34264 4.92998 8.24605C4.97164 8.14945 4.98361 8.04264 4.96434 7.93922C4.94507 7.83581 4.89545 7.74047 4.82179 7.66536C4.50309 7.35011 4.25008 6.97477 4.0774 6.56108C3.90473 6.14739 3.81582 5.70356 3.81582 5.25528C3.81582 4.807 3.90473 4.36317 4.0774 3.94948C4.25008 3.53579 4.50309 3.16045 4.82179 2.8452C4.91485 2.74414 4.96651 2.61179 4.96651 2.47442C4.96651 2.33704 4.91485 2.20469 4.82179 2.10363Z"
          />
          <path
            d="M10.3833 2.10363C10.334 2.05291 10.275 2.0126 10.2098 1.98507C10.1446 1.95754 10.0745 1.94336 10.0037 1.94336C9.93305 1.94336 9.86295 1.95754 9.79775 1.98507C9.73255 2.0126 9.67355 2.05291 9.62415 2.10363C9.53111 2.20469 9.47945 2.33704 9.47945 2.47442C9.47945 2.61179 9.53111 2.74414 9.62415 2.8452C9.94285 3.16045 10.1958 3.53579 10.3685 3.94948C10.5412 4.36317 10.6301 4.807 10.6301 5.25528C10.6301 5.70356 10.5412 6.14739 10.3685 6.56108C10.1958 6.97477 9.94285 7.35011 9.62415 7.66536C9.55051 7.74047 9.50089 7.83581 9.48162 7.93922C9.46235 8.04264 9.47431 8.14945 9.51598 8.24605C9.55765 8.34264 9.62715 8.42464 9.71555 8.48159C9.80405 8.53854 9.90745 8.56787 10.0126 8.56583C10.1523 8.56384 10.2855 8.50673 10.3833 8.40693C10.7981 7.99356 11.1273 7.50238 11.3518 6.96155C11.5764 6.42072 11.692 5.84088 11.692 5.25528C11.692 4.66968 11.5764 4.08984 11.3518 3.54901C11.1273 3.00818 10.7981 2.517 10.3833 2.10363Z"
          />
          <path
            d="M2.86185 9.60848C1.70927 8.45328 1.06198 6.88806 1.06198 5.25621C1.06198 3.62436 1.70927 2.05914 2.86185 0.903939C2.91257 0.854581 2.95289 0.795559 2.98042 0.730359C3.00794 0.665158 3.02213 0.595103 3.02213 0.524329C3.02213 0.453556 3.00794 0.383501 2.98042 0.3183C2.95289 0.2531 2.91257 0.194078 2.86185 0.14472C2.7608 0.0516585 2.62845 0 2.49107 0C2.35369 0 2.22134 0.0516585 2.12029 0.14472C1.44816 0.81548 0.91493 1.61221 0.551101 2.48931C0.187273 3.36641 0 4.30665 0 5.25621C0 6.20577 0.187273 7.14602 0.551101 8.02311C0.91493 8.90021 1.44816 9.69694 2.12029 10.3677C2.22311 10.4571 2.3548 10.5064 2.49107 10.5064C2.62734 10.5064 2.75903 10.4571 2.86185 10.3677C2.91257 10.3183 2.95289 10.2593 2.98042 10.1941C3.00794 10.1289 3.02213 10.0589 3.02213 9.98809C3.02213 9.91732 3.00794 9.84726 2.98042 9.78206C2.95289 9.71686 2.91257 9.65784 2.86185 9.60848Z"
          />
          <path
            d="M11.5842 0.14472C11.5334 0.194078 11.4931 0.2531 11.4656 0.3183C11.4381 0.383501 11.4239 0.453556 11.4239 0.524329C11.4239 0.595103 11.4381 0.665158 11.4656 0.730359C11.4931 0.795559 11.5334 0.854581 11.5842 0.903939C12.7367 2.05914 13.384 3.62436 13.384 5.25621C13.384 6.88806 12.7367 8.45328 11.5842 9.60848C11.5334 9.65784 11.4931 9.71686 11.4656 9.78206C11.4381 9.84726 11.4239 9.91732 11.4239 9.98809C11.4239 10.0589 11.4381 10.1289 11.4656 10.1941C11.4931 10.2593 11.5334 10.3183 11.5842 10.3677C11.687 10.4571 11.8187 10.5064 11.9549 10.5064C12.0912 10.5064 12.2229 10.4571 12.3257 10.3677C12.9978 9.69694 13.5311 8.90021 13.8949 8.02311C14.2587 7.14602 14.446 6.20577 14.446 5.25621C14.446 4.30665 14.2587 3.36641 13.8949 2.48931C13.5311 1.61221 12.9978 0.81548 12.3257 0.14472C12.2247 0.0516585 12.0923 0 11.9549 0C11.8176 0 11.6852 0.0516585 11.5842 0.14472Z"
          />
          <path
            d="M8.40504 6.80108L8.59925 6.62451C8.78263 6.44582 8.92738 6.23139 9.02457 5.99451C9.12175 5.75763 9.16929 5.50332 9.16426 5.24733C9.16527 4.99189 9.11589 4.73877 9.01893 4.50245C8.92198 4.26613 8.77937 4.05126 8.59925 3.87014C8.23244 3.50784 7.73763 3.30469 7.22206 3.30469C6.7065 3.30469 6.21169 3.50784 5.84488 3.87014C5.66337 4.05062 5.51933 4.26521 5.42104 4.50156C5.32276 4.73791 5.27216 4.99135 5.27216 5.24733C5.27216 5.5033 5.32276 5.75674 5.42104 5.99309C5.51933 6.22944 5.66337 6.44403 5.84488 6.62451L6.03909 6.80108L2.98456 13.793C2.95508 13.8566 2.93854 13.9256 2.93592 13.9957C2.93329 14.0658 2.94463 14.1358 2.96927 14.2015C2.99391 14.2672 3.03137 14.3273 3.07946 14.3785C3.12755 14.4296 3.18531 14.4706 3.2494 14.4992L3.46128 14.5345C3.56537 14.534 3.66718 14.5039 3.75474 14.4476C3.8423 14.3913 3.912 14.3112 3.95565 14.2167L4.55597 12.8219L6.69238 14.1814V15.4703C6.69238 15.5399 6.70608 15.6087 6.7327 15.673C6.75932 15.7373 6.79833 15.7957 6.84752 15.8449C6.89671 15.894 6.9551 15.9331 7.01936 15.9597C7.08363 15.9863 7.15251 16 7.22206 16C7.29162 16 7.3605 15.9863 7.42477 15.9597C7.48903 15.9331 7.54742 15.894 7.59661 15.8449C7.6458 15.7957 7.68481 15.7373 7.71143 15.673C7.73805 15.6087 7.75175 15.5399 7.75175 15.4703V14.1814L9.88815 12.8219L10.4884 14.2167C10.5321 14.3112 10.6018 14.3913 10.6893 14.4476C10.7769 14.5039 10.8787 14.534 10.9828 14.5345L11.1947 14.4992C11.2588 14.4706 11.3165 14.4296 11.3646 14.3785C11.4127 14.3273 11.4502 14.2672 11.4748 14.2015C11.4994 14.1358 11.5108 14.0658 11.5082 13.9957C11.5055 13.9256 11.489 13.8566 11.4595 13.793L8.40504 6.80108ZM6.58644 4.62936C6.75522 4.46116 6.98379 4.36671 7.22206 4.36671C7.46034 4.36671 7.68891 4.46116 7.85769 4.62936C8.01756 4.79521 8.10626 5.01697 8.10488 5.24733C8.10715 5.48308 8.01864 5.71067 7.85769 5.88295C7.68891 6.05115 7.46034 6.14559 7.22206 6.14559C6.98379 6.14559 6.75522 6.05115 6.58644 5.88295C6.42356 5.71495 6.33248 5.49015 6.33248 5.25615C6.33248 5.02216 6.42356 4.79735 6.58644 4.62936ZM4.99737 11.8508L6.69238 7.96639V12.9278L4.99737 11.8508ZM7.75175 12.9278V7.96639L9.44676 11.8331L7.75175 12.9278Z"
          />
        </svg>,
        "id": "afs",
        "inactiveClassName": "bp3-minimal",
        "permissions": Array [
          "af_write",
        ],
        "route": "/afs",
        "text": "4G & 5G Access Function",
      },
      Object {
        "className": "bp3-intent-primary",
        "icon": <svg
          fill="none"
          height="16"
          style={
            Object {
              "fill": "currentColor",
            }
          }
          viewBox="0 0 16 16"
          width="16"
          xmlns="http://www.w3.org/2000/svg"
        >
          <path
            d="M5.71534 2.95678C5.64062 2.87922 5.5413 2.83594 5.438 2.83594C5.3347 2.83594 5.23538 2.87922 5.16066 2.95678C4.40614 3.7795 3.98243 4.89401 3.98243 6.05596C3.98243 7.2179 4.40614 8.33242 5.16066 9.1551C5.23755 9.21972 5.33131 9.25616 5.42844 9.2591C5.53147 9.25634 5.63139 9.22016 5.71534 9.1551C5.77901 9.06985 5.81378 8.96337 5.81378 8.85353C5.81378 8.74369 5.77901 8.6372 5.71534 8.55193C5.41172 8.22337 5.1708 7.8328 5.00641 7.40269C4.84201 6.97256 4.75738 6.51135 4.75738 6.04556C4.75738 5.57976 4.84201 5.11855 5.00641 4.68843C5.1708 4.2583 5.41172 3.86774 5.71534 3.53918C5.78121 3.4591 5.81762 3.35542 5.81762 3.24798C5.81762 3.14054 5.78121 3.03686 5.71534 2.95678Z"
            strokeWidth="0.3"
          />
          <path
            d="M10.7366 2.95678C10.6698 3.03686 10.6328 3.14054 10.6328 3.24798C10.6328 3.35542 10.6698 3.4591 10.7366 3.53918C12.2898 5.20317 12.2898 6.88795 10.7366 8.55193C10.672 8.6372 10.6367 8.74369 10.6367 8.85353C10.6367 8.96337 10.672 9.06985 10.7366 9.1551C10.8219 9.22016 10.9233 9.25634 11.0278 9.2591C11.1264 9.25616 11.2216 9.21972 11.2996 9.1551C13.1634 7.15835 13.1634 4.95357 11.2996 2.95678C11.2238 2.87922 11.123 2.83594 11.0181 2.83594C10.9133 2.83594 10.8124 2.87922 10.7366 2.95678Z"
            strokeWidth="0.3"
          />
          <path
            d="M3.87016 1.11851C3.78832 1.04244 3.67953 1 3.56639 1C3.45325 1 3.34446 1.04244 3.26261 1.11851C1.7961 2.56679 1 4.25986 1 6.05493C1 7.84998 1.7961 9.54302 3.26261 10.9709C3.33997 11.0478 3.44539 11.0918 3.55592 11.0933C3.61416 11.0953 3.67218 11.0855 3.7263 11.0644C3.7804 11.0433 3.82941 11.0114 3.87016 10.9709C3.94231 10.8924 3.9822 10.7907 3.9822 10.6853C3.9822 10.58 3.94231 10.4783 3.87016 10.3998C2.55031 9.11467 1.838 7.6052 1.838 6.05493C1.838 4.50464 2.55031 2.97477 3.87016 1.68966C3.94231 1.61112 3.9822 1.50945 3.9822 1.40408C3.9822 1.29871 3.94231 1.19704 3.87016 1.11851Z"
            strokeWidth="0.3"
          />
          <path
            d="M13.1883 1.11821C13.1064 1.04233 12.9976 1 12.8846 1C12.7714 1 12.6626 1.04233 12.5807 1.11821C12.5086 1.19654 12.4687 1.29795 12.4687 1.40305C12.4687 1.50814 12.5086 1.60956 12.5807 1.68789C13.9006 2.96969 14.6129 4.45494 14.6129 5.9402C14.6129 7.42546 13.9006 8.89037 12.5807 10.1721C12.5086 10.2505 12.4687 10.3519 12.4687 10.4569C12.4687 10.5621 12.5086 10.6635 12.5807 10.7418C12.6215 10.7823 12.6705 10.814 12.7246 10.8351C12.7787 10.8561 12.8367 10.8659 12.895 10.8639C13.0055 10.8624 13.111 10.8185 13.1883 10.7418C14.6548 9.3176 15.4509 7.64926 15.4509 5.9402C15.4509 4.23114 14.6548 2.56277 13.1883 1.11821Z"
            strokeWidth="0.3"
          />
          <path
            d="M8.21497 4.22656C7.76575 4.24171 7.33701 4.39838 7.00728 4.70384C6.67755 5.00932 6.4689 5.42335 6.41953 5.87011C6.37016 6.31688 6.48339 6.76648 6.73848 7.13656C6.99355 7.50666 7.37342 7.77248 7.80849 7.88535V14.8158C7.80849 14.9235 7.85132 15.0269 7.92755 15.1031C8.00378 15.1794 8.10717 15.2222 8.21497 15.2222C8.32278 15.2222 8.42616 15.1794 8.5024 15.1031C8.57863 15.0269 8.62144 14.9235 8.62144 14.8158V7.90568C9.05655 7.7928 9.43638 7.52698 9.69149 7.15689C9.94651 6.7868 10.0597 6.3372 10.0104 5.89044C9.961 5.44368 9.75238 5.02965 9.42269 4.72417C9.09291 4.4187 8.6642 4.24171 8.21497 4.22656ZM8.21497 7.11304C8.00595 7.11304 7.80162 7.05106 7.62783 6.93494C7.45403 6.81881 7.31857 6.65376 7.23858 6.46064C7.15859 6.26753 7.13767 6.05504 7.17844 5.85003C7.21922 5.64503 7.31987 5.45672 7.46768 5.30891C7.61548 5.16112 7.80379 5.06046 8.00879 5.01968C8.2138 4.9789 8.4263 4.99984 8.61941 5.07982C8.81252 5.15981 8.97753 5.29527 9.09371 5.46906C9.2098 5.64286 9.27184 5.84719 9.27184 6.05621C9.27184 6.195 9.24447 6.33242 9.1914 6.46064C9.13824 6.58887 9.06038 6.70537 8.96224 6.80351C8.86413 6.90164 8.74763 6.97949 8.61941 7.0326C8.49119 7.08571 8.35376 7.11304 8.21497 7.11304Z"
            strokeWidth="0.3"
          />
        </svg>,
        "id": "xms_af",
        "inactiveClassName": "bp3-minimal",
        "permissions": Array [
          "af_write",
        ],
        "route": "/afs/xms",
        "text": "3G Access Function",
        "url": "/#!af",
      },
    ],
    "className": "bp3-intent-primary",
    "defaultSelected": true,
    "icon": <span
      className="bp3-icon"
    >
      <svg
        height="16"
        style={
          Object {
            "fill": "currentColor",
          }
        }
        viewBox="0 0 16 16"
        width="16"
        xmlns="http://www.w3.org/2000/svg"
      >
        <path
          clipRule="evenodd"
          d="M15 0H1C0.45 0 0 0.192857 0 0.428571V5.57143C0 5.80714 0.45 6 1 6H15C15.55 6 16 5.80714 16 5.57143V0.428571C16 0.192857 15.55 0 15 0ZM8.5 3H13.5C13.78 3 14 2.78 14 2.5C14 2.22 13.78 2 13.5 2H8.5C8.22 2 8 2.22 8 2.5C8 2.78 8.22 3 8.5 3ZM2 2.5C2 2.22386 2.22386 2 2.5 2H3.5C3.77614 2 4 2.22386 4 2.5C4 2.77614 3.77614 3 3.5 3H2.5C2.22386 3 2 2.77614 2 2.5Z"
          fillRule="evenodd"
        />
        <path
          clipRule="evenodd"
          d="M7.5 6L7.5 14C7.5 14.56 7.72 15 8 15C8.28 15 8.5 14.56 8.5 14L8.5 6C8.5 5.44 8.28 5 8 5C7.72 5 7.5 5.44 7.5 6Z"
          fillRule="evenodd"
        />
        <path
          clipRule="evenodd"
          d="M11.5 13H4.5C4.225 13 4 13.0964 4 13.2143V15.7857C4 15.9036 4.225 16 4.5 16H11.5C11.775 16 12 15.9036 12 15.7857V13.2143C12 13.0964 11.775 13 11.5 13Z"
          fillRule="evenodd"
        />
        <line
          strokeLinecap="round"
          strokeLinejoin="round"
          x1="0.5"
          x2="15.5"
          y1="14.5"
          y2="14.5"
        />
        <path
          clipRule="evenodd"
          d="M9.75 9H6.25C6.1125 9 6 9.16071 6 9.35714V13.6429C6 13.8393 6.1125 14 6.25 14H9.75C9.8875 14 10 13.8393 10 13.6429V9.35714C10 9.16071 9.8875 9 9.75 9Z"
          fillRule="evenodd"
        />
      </svg>
    </span>,
    "id": "accessFunction",
    "inactiveClassName": "bp3-minimal",
    "permissions": Array [
      "af_write",
    ],
    "route": "/afs",
    "text": "Access Function",
  },
  Object {
    "className": "bp3-intent-primary",
    "defaultSelected": true,
    "icon": "badge",
    "id": "cfs",
    "inactiveClassName": "bp3-minimal",
    "permissions": Array [
      "cf_write",
    ],
    "route": "/cfs",
    "text": "Collection Function",
  },
  Object {
    "className": "bp3-intent-primary",
    "defaultSelected": true,
    "icon": <span
      className="bp3-icon"
    >
      <svg
        height="16"
        style={
          Object {
            "fill": "currentColor",
          }
        }
        viewBox="0 0 16 16"
        width="16"
        xmlns="http://www.w3.org/2000/svg"
      >
        <path
          clipRule="evenodd"
          d="M9 0H3C2.45 0 2 0.45 2 1V15C2 15.55 2.45 16 3 16H13C13.55 16 14 15.55 14 15V5L9 0ZM12 14H4V2H8V6H12V14Z"
          fillRule="evenodd"
        />
        <path
          clipRule="evenodd"
          d="M10.5714 11H5.42857C5.19286 11 5 11.225 5 11.5C5 11.775 5.19286 12 5.42857 12H10.5714C10.8071 12 11 11.775 11 11.5C11 11.225 10.8071 11 10.5714 11ZM5.375 8H10.625C10.8313 8 11 7.775 11 7.5C11 7.225 10.8313 7 10.625 7H5.375C5.16875 7 5 7.225 5 7.5C5 7.775 5.16875 8 5.375 8ZM10.625 9H5.375C5.16875 9 5 9.225 5 9.5C5 9.775 5.16875 10 5.375 10H10.625C10.8313 10 11 9.775 11 9.5C11 9.225 10.8313 9 10.625 9Z"
          fillRule="evenodd"
        />
      </svg>
    </span>,
    "id": "xms_reports",
    "inactiveClassName": "bp3-minimal",
    "permissions": Array [
      "af_report",
      "cf_report",
      "warrant_report",
      "stat_report",
    ],
    "route": "/xms/reports",
    "text": "Reports",
    "url": "/#!reports",
  },
  Object {
    "className": "bp3-intent-primary",
    "defaultSelected": true,
    "icon": "dashboard",
    "id": "xms_monitoring",
    "inactiveClassName": "bp3-minimal",
    "permissions": Array [
      "dashboard_access",
    ],
    "route": "/xms/monitoring",
    "text": "Monitoring",
    "url": "/#!monitoring",
  },
  Object {
    "className": "bp3-intent-primary",
    "defaultSelected": true,
    "icon": "pulse",
    "id": "xms_system_health",
    "inactiveClassName": "bp3-minimal",
    "permissions": Array [
      "sh_access",
    ],
    "route": "/xms/systemhealth",
    "text": "System Health",
    "url": "/#!systemHealth",
  },
  Object {
    "className": "bp3-intent-primary",
    "defaultSelected": true,
    "icon": <span
      className="bp3-icon"
    >
      <svg
        height="17"
        style={
          Object {
            "fill": "currentColor",
          }
        }
        viewBox="0 0 15 17"
        width="15"
        xmlns="http://www.w3.org/2000/svg"
      >
        <path
          d="M7.47 3.3724C7.71876 3.3724 7.92043 3.18571 7.92043 2.95545V1.28767C7.92043 1.05741 7.71876 0.870728 7.47 0.870728C7.22124 0.870728 7.01956 1.05741 7.01956 1.28767V2.95545C7.01956 3.18571 7.22124 3.3724 7.47 3.3724Z"
        />
        <path
          d="M3.92339 3.96171C4.04816 4.16176 4.32385 4.22911 4.53867 4.11431C4.75412 3.99918 4.82793 3.74418 4.70353 3.54477L3.80267 2.10044C3.67827 1.901 3.40282 1.83271 3.18739 1.94784C2.97194 2.06297 2.89813 2.31798 3.02254 2.51739L3.92339 3.96171Z"
        />
        <path
          d="M2.40092 6.11356C2.52532 5.91415 2.45151 5.65915 2.23606 5.54401L0.675722 4.71012C0.460268 4.59496 0.184787 4.66328 0.0604394 4.86272C-0.0639685 5.06213 0.00984144 5.31714 0.225296 5.43227L1.78563 6.26616C2.00013 6.38082 2.276 6.31386 2.40092 6.11356Z"
        />
        <path
          d="M10.4613 4.11434C10.6758 4.229 10.9517 4.16201 11.0766 3.96174L11.9774 2.51741C12.1018 2.318 12.028 2.063 11.8126 1.94787C11.5971 1.83268 11.3216 1.90103 11.1973 2.10047L10.2964 3.54479C10.172 3.7442 10.2458 3.9992 10.4613 4.11434Z"
        />
        <path
          d="M14.9396 4.86276C14.8151 4.66332 14.5397 4.59505 14.3243 4.71016L12.7639 5.54405C12.5485 5.65918 12.4747 5.91418 12.5991 6.11359C12.7238 6.31364 12.9995 6.38099 13.2144 6.26619L14.7747 5.4323C14.9901 5.31717 15.064 5.0622 14.9396 4.86276Z"
        />
        <path
          clipRule="evenodd"
          d="M13.125 15.1024C12.6094 15.1024 12.1875 14.6755 12.1875 14.1536V10.3585C12.1875 8.05298 10.5656 6.13644 8.41874 5.70949C8.41874 5.67154 8.43749 5.65256 8.43749 5.61461C8.43749 5.09278 8.01561 4.66583 7.49999 4.66583C6.98437 4.66583 6.56249 5.09278 6.56249 5.61461C6.56249 5.65256 6.58124 5.67154 6.58124 5.70949C4.43437 6.13644 2.8125 8.05298 2.8125 10.3585V14.1536C2.8125 14.6755 2.39062 15.1024 1.875 15.1024C1.35937 15.1024 0.9375 15.5294 0.9375 16.0512C0.9375 16.573 1.35937 17 1.875 17H13.125C13.6406 17 14.0625 16.573 14.0625 16.0512C14.0625 15.5294 13.6406 15.1024 13.125 15.1024Z"
          fillRule="evenodd"
        />
        <path
          d="M7.50002 4.66583C4.91534 4.66583 2.81253 6.15056 2.81253 7.97553V11.3073H12.1875V7.97553C12.1875 6.15056 10.0847 4.66583 7.50002 4.66583Z"
        />
      </svg>
    </span>,
    "id": "xms_alarm",
    "inactiveClassName": "bp3-minimal",
    "permissions": Array [
      "alarm_access",
    ],
    "route": "/xms/alarm",
    "text": "Alarm",
    "url": "/#!alarm",
  },
  Object {
    "children": Array [
      Object {
        "className": "bp3-intent-primary",
        "icon": "intersection",
        "id": "users",
        "inactiveClassName": "bp3-minimal",
        "permissions": Array [
          "user_view",
        ],
        "route": "/users",
        "text": "Users",
      },
      Object {
        "className": "bp3-intent-primary",
        "icon": "history",
        "id": "teams",
        "inactiveClassName": "bp3-minimal",
        "permissions": Array [
          "team_view",
        ],
        "route": "/teams",
        "text": "Teams",
      },
      Object {
        "className": "bp3-intent-primary",
        "icon": "tag",
        "id": "roles",
        "inactiveClassName": "bp3-minimal",
        "permissions": Array [
          "userrole_view",
        ],
        "route": "/roles",
        "text": "Roles",
      },
    ],
    "className": "bp3-minimal",
    "icon": "people",
    "id": "people",
    "permissions": Array [
      "user_view",
      "userrole_view",
      "team_view",
      "policy_view",
      "audit_view",
      "contacts_view",
    ],
    "route": "/users",
    "text": "People",
  },
  Object {
    "children": Array [
      Object {
        "className": "bp3-intent-primary",
        "icon": "highlight",
        "id": "userAudit",
        "inactiveClassName": "bp3-minimal",
        "permissions": Array [
          "audit_log_view",
        ],
        "route": "/userAudit",
        "text": "User Audit",
      },
      Object {
        "className": "bp3-intent-primary",
        "icon": "search-around",
        "id": "general",
        "inactiveClassName": "bp3-minimal",
        "permissions": Array [
          "audit_log_view",
        ],
        "route": "/audit",
        "text": "General Audit",
      },
    ],
    "className": "bp3-minimal",
    "icon": "th-list",
    "id": "audit",
    "permissions": Array [
      "audit_log_view",
      "audit_log_delete",
    ],
    "route": "/userAudit",
    "text": "Audit",
  },
  Object {
    "children": Array [
      Object {
        "className": "bp3-intent-primary",
        "icon": "settings",
        "id": "xms_system_conf",
        "inactiveClassName": "bp3-minimal",
        "permissions": Array [
          "br_access",
          "dfsubsys_access",
          "mml_access",
          "wt_access",
        ],
        "route": "/systemSettings/xms",
        "text": "System Configuration",
        "url": "/#!sysconfhome",
      },
      Object {
        "className": "bp3-intent-primary",
        "icon": "search-around",
        "id": "ss8_distributors",
        "inactiveClassName": "bp3-minimal",
        "permissions": Array [
          "dc_access",
        ],
        "route": "/systemSettings/distributors",
        "text": "SS8 Distributors",
      },
    ],
    "className": "bp3-intent-primary",
    "defaultSelected": true,
    "icon": "settings",
    "id": "systemSettings",
    "inactiveClassName": "bp3-minimal",
    "permissions": Array [
      "br_access",
      "dfsubsys_access",
      "mml_access",
      "wt_access",
      "dc_access",
      "tp_access",
    ],
    "route": "/systemSettings",
    "text": "Settings",
  },
  Object {
    "children": Array [],
    "className": "bp3-minimal",
    "icon": "pivot",
    "id": "distribution",
    "permissions": Array [],
    "route": "/",
    "text": "Distribution Functions",
  },
]
`;
