{
  "name": "User Config Form",
  "key": "user-config",
  "version": "1.0.0",
  "forms": {
    "caseNotes": {
      "metadata": {
        "layout": {
          "rows": [
            [
              "userID"
            ],
            [
              "email"
            ],
            [
              "firstName"
            ],
            [
              "lastName"
            ],
            [
              "assignedRoles"
            ],
            [
              "password"
            ]
          ]
        }
      },
      "fields": {
        "userID": {
          "label": "Username",
          "icon": "person",
          "type": "text",
          "tabIndex": 1,
          "initial": "",
          "validation": {
            "required": true,
            "validators": [
              {
                "type": "regexp",
                "regexp": "^[A-Za-z0-9_\\-+\\.$~!*]{1,255}$",
                "errorMessage": "Must be between 1-255 characters.  It can include letters, digits, spaces and the following special characters: _-+.$~!*.  Please re-enter."
              },
              {
                "type": "length",
                "length": 255,
                "errorMessage": "Exceeds maximum length, 255"
              }
            ]
          }
        },
        "email": {
          "label": "Email",
          "tabIndex": 2,
          "type": "text",
          "initial": "",
          "validation": {
            "validators": [
              {
                "type": "regexp",
                "regexp": "^[_a-zA-Z0-9-]+(\\.[_a-zA-Z0-9-]+)*(\\.\\\"[\\w/#%&<>\\\\\\*\\(\\)\\.\\?]+\\\")*(\\.[_a-zA-Z0-9-]+)*@[a-zA-Z0-9-]+(\\.[a-zA-Z0-9-]+)+$",
                "errorMessage": "Please enter a valid email address."
              },
              {
                "type": "length",
                "length": 255,
                "errorMessage": "Exceeds maximum length, 255.  Please re-enter."
              }
            ]
          }
        },
        "firstName": {
          "label": "First Name",
          "tabIndex": 3,
          "type": "text",
          "initial": "",
          "validation": {
            "validators": [
              {
                "type": "length",
                "length": 64,
                "errorMessage": "Exceeds maximum length, 64.  Please re-enter."
              }
            ]
          }
        },
        "lastName": {
          "label": "Last Name",
          "tabIndex": 4,
          "type": "text",
          "initial": "",
          "validation": {
            "validators": [
              {
                "type": "length",
                "length": 64,
                "errorMessage": "Exceeds maximum length, 64.  Please re-enter."
              }
            ]
          }
        },
        "assignedRoles": {
          "label": "Role",
          "tabIndex": 5,
          "type": "multiselectTypeahead",
          "initial": [],
          "options": [],
          "validation": {
            "required": true
          },
          "position": "right"
        },
        "password": {
          "label": "Password",
          "type": "password",
          "tabIndex": 6,
          "initial": "",
          "validation": {
            "required": true
          }
        }
      }
    }
  }
}