{
  "name": "Team Edit Form",
  "key": "team-edit",
  "version": "1.0.0",
  "forms": {
    "caseNotes": {
      "metadata": {
        "layout": {
          "rows": [
            [
              "name"
            ],
            [
              "description"
            ],
            [
              "members"
            ]
          ]
        }
      },
      "fields": {
        "name": {
          "label": "Team Name",
          "icon": "name",
          "type": "text",
          "tabIndex": 1,
          "initial": "",
          "validation": {
            "required": true,
            "validators": [
              {
                "type": "regexp",
                "regexp": "^[A-Za-z0-9\\s\\-_\\.~!@#$%^*+?/]{1,64}$",
                "errorMessage": "Must be between 1-64 characters.  Can include letters, digits, spaces and the following special characters: -_.~!@#$%^*+?/. Please re-enter."
              },
              {
                "type": "length",
                "length": 64,
                "errorMessage": "Exceeds maximum length, 64.  Please re-enter."
              }
            ]
          }
        },
        "description": {
          "label": "Team Description",
          "icon": "name",
          "type": "textarea",
          "tabIndex": 2,
          "initial": "",
          "validation": {
            "validators": [
              {
                "type": "length",
                "length": 255,
                "errorMessage": "Exceeds maximum length, 255"
              }
            ]
          }
        },
        "members": {
          "label": "Select Users",
          "tabIndex": 3,
          "type": "multiselectTypeahead",
          "initial": [],
          "options": [
            {
              "label": "Select",
              "value": "Select"
            }
          ],
          "position": "right"
        }
      }
    }
  }
}