{
  "device": "",
  "dxAccess": "",
  "dxOwner": "",
  "liId": "",
  "name": "",
  "cfId": {},
  "options": {
    "kpi": false,
    "traceLevel": 0,
    "configureOptions": false,
    "packetEnvelopeMessage": false,
    "packetEnvelopeContent": false,
    "realTimeText": false,
    "callPartyNumberDisplay": false,
    "directDigitExtractionData": false,
    "monitoringReplacementPartiesAllowed": false,
    "circuitSwitchedVoiceCombined": false,
    "includeInBandOutBoundSignalling": false,
    "encryptionType": "",
    "encryptionKey": "",
    "provideTargetIdentityInCcChannel": "",
    "cccBillingType": "",
    "cccBillingNumber": "",
    "deactivationMode": "",
    "location": false,
    "target": false,
    "sms": false,
    "callIndependentSupplementaryServicesContent": false,
    "packetSummaryCount": 0,
    "packetSummaryTimer": 0,
    "generatePacketDataHeaderReport": false,
    "packetHeaderInformationReportFilter": "NONE",
    "callTraceLogging": 0,
    "featureStatusInterval": 0,
    "surveillanceStatusInterval": 0
  },
  "services": [],
  "genccc": {},
  "startDateTime": "",
  "stopDateTime": "",
  "targets": [],
  "timeZone": "",
  "type": "",
  "isValid": true,
  "templateUsed":null
}