{
  "version": "1.0.1",
  "name": "Gizmo",
  "key": "GIZMO",
  "processOptionProcName": "GIZMOAFIM",
  "general": {
    "metadata": {
      "layout": {
        "rows": [
          [
            "id",
            "liInterface",
            "type",
            "preprovisioningLead"
          ],
          [
            "name",
            "description",
            "tag",
            "insideNat"
          ],
          [
            "contentDeliveryVia",
            "$empty",
            "$empty",
            "$empty"
          ]
        ]
      }
    },
    "fields": {
      "id": {
        "type": "text",
        "hide": "true",
        "initial": ""
      },
      "liInterface": {
        "type": "text",
        "hide": "true",
        "initial": "ALL"
      },
      "preprovisioningLead": {
        "type": "text",
        "hide": "true",
        "initial": "000:00"
      },
      "name": {
        "label": "Name",
        "type": "text",
        "initial": "",
        "validation": {
          "required": true,
          "validators": [
            {
              "type": "length",
              "length": 256
            },
            {
              "type": "regexp",
              "regexp": "^[A-Za-z0-9\\s\\-_\\.~!@#$%^*+?]{1,256}$",
              "errorMessage": "Must be between 1-256 characters. Can include letters, digits, spaces and the following special characters: -_.~!@#$%^*+?. Please re-enter."
            },
            {
              "type": "customFunction",
              "customValidationFunction": "nonRepeatedPropertyValidator",
              "errorMessage": "AF with this name already exists."
            }
          ]
        }
      },
      "description": {
        "label": "Description",
        "type": "text",
        "initial": "",
        "validation": {
          "validators": [
            {
              "type": "length",
              "length": 256
            }
          ]
        }
      },
      "type": {
        "type": "text",
        "hide": "true",
        "initial": "GIZMO"
      },
      "tag": {
        "label": "AF Type",
        "type": "select",
        "initial": "GIZMO",
        "options": [],
        "validation": {
          "required": true
        }
      },
      "insideNat": {
        "label": "Xcipio is behind NAT",
        "type": "checkbox",
        "initial": false
      },
      "contentDeliveryVia": {
        "label": "Configure",
        "type": "select",
        "initial": "directFromAF",
        "options": [
          {
            "label": "without Traffic Manager",
            "value": "directFromAF"
          },
          {
            "label": "with Traffic Manager",
            "value": "trafficManager"
          }
        ]
      }
    }
  },
  "systemInformation": {
    "metadata": {
      "layout": {
        "rows": [
          [
            "version",
            "model",
            "serialNumber",
            "contact"
          ],
          [
            "country",
            "stateName",
            "city",
            "timeZone"
          ]
        ]
      }
    },
    "fields": {
      "serialNumber": {
        "label": "Serial Number",
        "type": "text",
        "initial": "",
        "validation": {
          "validators": [
            {
              "type": "length",
              "length": 16
            }
          ]
        }
      },
      "model": {
        "label": "Model Number",
        "type": "text",
        "initial": "",
        "disabled": true
      },
      "version": {
        "label": "Software Version",
        "type": "textSuggest",
        "initial": "",
        "validation": {
          "validators": [
            {
              "type": "length",
              "length": 16
            }
          ]
        },
        "options": []
      },
      "country": {
        "label": "Country",
        "type": "select",
        "initial": "",
        "options": [
          {
            "label": "Select a country",
            "value": ""
          }
        ]
      },
      "stateName": {
        "label": "State/Province",
        "type": "select",
        "initial": "",
        "disabled": true,
        "options": [
          {
            "label": "Select a state/province",
            "value": ""
          }
        ]
      },
      "city": {
        "label": "City",
        "type": "select",
        "initial": "",
        "disabled": true,
        "options": [
          {
            "label": "Select a city",
            "value": ""
          }
        ]
      },
      "timeZone": {
        "label": "Time Zone",
        "type": "timezone",
        "initial": "",
        "validation": {
          "required": true
        },
        "options": [
          {
            "label": "Select a time zone",
            "value": ""
          }
        ]
      },
      "contact": {
        "label": "Contact",
        "type": "select",
        "initial": "",
        "options": [
          {
            "label": "Select a contact",
            "value": ""
          }
        ]
      }
    }
  },
  "provisioningInterfaces_directFromAF": {
    "metadata": {
      "min": 0,
      "max": 1,
      "expandByDefault": true,
      "layout": {
        "rows": [
          [
            "id",
            "name",
            "role",
            "$empty"
          ],
          [
            "uri",
            "secinfoid",
            "ownnetid",
            "reqState"
          ],
          [
            "$empty",
            "$empty",
            "$empty",
            "state"
          ]
        ],
        "collapsible": {
          "label": "Advanced Settings",
          "rows": [
            [
              "dscp",
              "litargetnamespace",
              "neid",
              "transport"
            ],
            [
              "appProtocol",
              "version",
              "$empty",
              "$empty"
            ]
          ]
        }
      }
    },
    "fields": {
      "id": {
        "type": "text",
        "hide": "true"
      },
      "name": {
        "type": "text",
        "hide": "true",
        "initial": ""
      },
      "uri": {
        "label": "AF URL",
        "type": "text",
        "initial": "",
        "placeholder": "Enter URL as https://10.11.22.443/li/",
        "validation": {
          "required": true,
          "validators": [
            {
              "type": "length",
              "length": 256
            },
            {
              "type": "URL",
              "errorMessage": "Must be a valid URL. Please re-enter."
            }
          ]
        },
        "affectedFieldsOnChange": [
          "secinfoid"
        ]
      },
      "secinfoid": {
        "label": "TLS Profile (Security Info ID)",
        "type": "select",
        "initial": "",
        "options": [
          {
            "label": "None",
            "value": ""
          }
        ],
        "validation": {
          "required": true
        }
      },
      "ownnetid": {
        "label": "Network ID",
        "type": "select",
        "initial": "",
        "options": [],
        "optionsFormat": "networkIdAndIpAddress",
        "validation": {
          "required": true,
          "validators": [
            {
              "type": "customFunction",
              "customValidationFunction": "networkIdNotFoundValidator",
              "errorMessage": "Please select another network ID."
            }
          ]
        }
      },
      "reqState": {
        "label": "Configured State",
        "type": "select",
        "initial": "ACTIVE",
        "options": [
          {
            "label": "Active",
            "value": "ACTIVE"
          },
          {
            "label": "Inactive",
            "value": "INACTIVE"
          }
        ]
      },
      "state": {
        "label": "Current State",
        "type": "custom",
        "initial": "",
        "hide": "true",
        "customComponent": "accessFunctionCurrentState",
        "className": "field-current-state"
      },
      "dscp": {
        "label": "DSCP (0-63)",
        "type": "text",
        "initial": "0",
        "validation": {
          "validators": [
            {
              "type": "regexp",
              "regexp": "^(6[0-3]|[1-5][0-9]|[0-9])$",
              "errorMessage": "Must be between 0 - 63. Please re-enter."
            }
          ]
        }
      },
      "litargetnamespace": {
        "label": "LI Target Namespace",
        "type": "text",
        "initial": "http://gizmo.net/li/03221/x1/2017/10",
        "validation": {
          "validators": [
            {
              "type": "length",
              "length": 256
            }
          ]
        }
      },
      "neid": {
        "label": "NE Identifier",
        "type": "text",
        "validation": {
          "validators": [
            {
              "type": "length",
              "length": 256
            }
          ]
        }
      },
      "transport": {
        "label": "Transport",
        "type": "text",
        "initial": "HTTP",
        "readOnly": true
      },
      "appProtocol": {
        "label": "APP Protocol",
        "type": "text",
        "initial": "GIZMO",
        "readOnly": true
      },
      "version": {
        "label": "AF Protocol Version",
        "type": "text",
        "initial": "1.3.1",
        "readOnly": true
      },
      "role": {
        "type": "text",
        "hide": "true",
        "initial": "CLIENT"
      }
    }
  },
  "dataInterfaces_directFromAF": {
    "metadata": {
      "min": 0,
      "max": 16,
      "expandByDefault": true,
      "layout": {
        "rows": [
          [
            "id",
            "name",
            "role",
            "appProtocol",
            "version"
          ],
          [
            "destIPAddr",
            "destPort",
            "secinfoid",
            "ownnetid"
          ],
          [
            "reqState",
            "$empty",
            "$empty",
            "$empty"
          ],
          [
            "state",
            "$empty",
            "$empty",
            "$empty"
          ]
        ],
        "collapsible": {
          "label": "Advanced Settings",
          "rows": [
            [
              "dscp",
              "transport",
              "$empty",
              "$empty"
            ]
          ]
        }
      }
    },
    "fields": {
      "id": {
        "type": "text",
        "hide": "true"
      },
      "name": {
        "type": "text",
        "hide": "true",
        "initial": ""
      },
      "destIPAddr": {
        "label": "AF IP Address",
        "type": "text",
        "initial": "",
        "validation": {
          "required": true,
          "validators": [
            {
              "type": "length",
              "length": 42
            },
            {
              "type": "IPAddress",
              "errorMessage": "Must be a valid IP Address. Please re-enter."
            }
          ]
        }
      },
      "destPort": {
        "label": "AF Port",
        "type": "text",
        "initial": "0",
        "validation": {
          "required": true,
          "validators": [
            {
              "type": "length",
              "length": 5
            },
            {
              "type": "Interval",
              "intervals": [
                [
                  0,
                  65535
                ]
              ],
              "errorMessage": "Must be between 0 - 65535. Please re-enter."
            }
          ]
        }
      },
      "secinfoid": {
        "label": "TLS Profile (Security Info ID)",
        "type": "select",
        "initial": "Tk9ORQ",
        "options": [
          {
            "label": "None",
            "value": "Tk9ORQ"
          }
        ]
      },
      "ownnetid": {
        "label": "Network ID",
        "type": "select",
        "initial": "",
        "processOptionParamName": "IRILISTENPORT",
        "processOptionLoadParamValueTo": "optionsFormatValue",
        "options": [],
        "optionsFormat": "networkIdIPAddressAndCustomPort",
        "optionsFormatValue": "12050",
        "validation": {
          "required": true,
          "validators": [
            {
              "type": "customFunction",
              "customValidationFunction": "networkIdNotFoundValidator",
              "errorMessage": "Please select another network ID."
            }
          ]
        }
      },
      "reqState": {
        "label": "Configured State",
        "type": "select",
        "initial": "ACTIVE",
        "options": [
          {
            "label": "Active",
            "value": "ACTIVE"
          },
          {
            "label": "Inactive",
            "value": "INACTIVE"
          }
        ]
      },
      "state": {
        "label": "Current State",
        "type": "custom",
        "initial": "",
        "hide": "true",
        "customComponent": "accessFunctionCurrentState",
        "className": "field-current-state"
      },
      "dscp": {
        "label": "DSCP (0-63)",
        "type": "text",
        "initial": "0",
        "validation": {
          "validators": [
            {
              "type": "regexp",
              "regexp": "^(6[0-3]|[1-5][0-9]|[0-9])$",
              "errorMessage": "Must be between 0 - 63. Please re-enter."
            }
          ]
        }
      },
      "transport": {
        "label": "Transport",
        "type": "text",
        "initial": "TCP",
        "readOnly": true
      },
      "appProtocol": {
        "type": "text",
        "initial": "GIZMO",
        "hide": "true"
      },
      "version": {
        "type": "text",
        "initial": "1.3.1",
        "hide": "true"
      },
      "role": {
        "type": "text",
        "initial": "SERVER",
        "hide": "true"
      }
    }
  },
  "contentInterfaces_directFromAF": {
    "metadata": {
      "min": 0,
      "max": 16,
      "expandByDefault": true,
      "layout": {
        "rows": [
          [
            "id",
            "name",
            "role",
            "appProtocol",
            "version"
          ],
          [
            "destIPAddr",
            "destPort",
            "secinfoid",
            "ownnetid"
          ],
          [
            "reqState",
            "$empty",
            "$empty",
            "$empty"
          ],
          [
            "state",
            "$empty",
            "$empty",
            "$empty"
          ]
        ],
        "collapsible": {
          "label": "Advanced Settings",
          "rows": [
            [
              "dscp",
              "transport",
              "$empty",
              "$empty"
            ]
          ]
        }
      }
    },
    "fields": {
      "id": {
        "type": "text",
        "hide": "true"
      },
      "name": {
        "type": "text",
        "hide": "true",
        "initial": ""
      },
      "destIPAddr": {
        "label": "AF IP Address",
        "type": "text",
        "initial": "",
        "validation": {
          "required": true,
          "validators": [
            {
              "type": "length",
              "length": 42
            },
            {
              "type": "IPAddress",
              "errorMessage": "Must be a valid IP Address. Please re-enter."
            }
          ]
        }
      },
      "destPort": {
        "label": "AF Port",
        "type": "text",
        "initial": "0",
        "validation": {
          "required": true,
          "validators": [
            {
              "type": "length",
              "length": 5
            },
            {
              "type": "Interval",
              "intervals": [
                [
                  0,
                  65535
                ]
              ],
              "errorMessage": "Must be between 0 - 65535. Please re-enter."
            }
          ]
        }
      },
      "secinfoid": {
        "label": "TLS Profile (Security Info ID)",
        "type": "select",
        "initial": "Tk9ORQ",
        "options": [
          {
            "label": "None",
            "value": "Tk9ORQ"
          }
        ]
      },
      "ownnetid": {
        "label": "Network ID",
        "type": "select",
        "initial": "",
        "processOptionParamName": "CCLISTENPORT",
        "processOptionLoadParamValueTo": "optionsFormatValue",
        "options": [],
        "optionsFormat": "networkIdIPAddressAndCustomPort",
        "optionsFormatValue": "45141",
        "validation": {
          "required": true,
          "validators": [
            {
              "type": "customFunction",
              "customValidationFunction": "networkIdNotFoundValidator",
              "errorMessage": "Please select another network ID."
            }
          ]
        }
      },
      "reqState": {
        "label": "Configured State",
        "type": "select",
        "initial": "ACTIVE",
        "options": [
          {
            "label": "Active",
            "value": "ACTIVE"
          },
          {
            "label": "Inactive",
            "value": "INACTIVE"
          }
        ]
      },
      "state": {
        "label": "Current State",
        "type": "custom",
        "initial": "",
        "hide": "true",
        "customComponent": "accessFunctionCurrentState",
        "className": "field-current-state"
      },
      "dscp": {
        "label": "DSCP (0-63)",
        "type": "text",
        "initial": "0",
        "validation": {
          "validators": [
            {
              "type": "regexp",
              "regexp": "^(6[0-3]|[1-5][0-9]|[0-9])$",
              "errorMessage": "Must be between 0 - 63. Please re-enter."
            }
          ]
        }
      },
      "transport": {
        "label": "Transport",
        "type": "text",
        "initial": "TCP",
        "readOnly": true
      },
      "appProtocol": {
        "type": "text",
        "initial": "GIZMO",
        "hide": "true"
      },
      "version": {
        "type": "text",
        "initial": "1.3.1",
        "hide": "true"
      },
      "role": {
        "type": "text",
        "initial": "SERVER",
        "hide": "true"
      }
    }
  },
  "contentInterfaces_trafficManager": {
    "metadata": {
      "min": 1,
      "max": 32,
      "layout": {
        "rows": [
          [
            "id",
            "name",
            "$empty",
            "$empty"
          ],
          [
            "lbid",
            "destIPAddr",
            "destPort",
            "ownnetid"
          ],
          [
            "secinfoid",
            "reqState",
            "$empty",
            "$empty"
          ],
          [
            "$empty",
            "state",
            "$empty",
            "$empty"
          ]
        ],
        "collapsible": {
          "label": "Advanced Settings",
          "rows": [
            [
              "dscp",
              "traceLevel",
              "type",
              "$empty"
            ]
          ]
        }
      }
    },
    "fields": {
      "id": {
        "type": "text",
        "hide": "true"
      },
      "name": {
        "type": "text",
        "hide": "true",
        "initial": ""
      },
      "lbid": {
        "label": "XTP ID",
        "type": "select",
        "initial": "",
        "options": [],
        "validation": {
          "required": true
        }
      },
      "destIPAddr": {
        "label": "AF IP Address",
        "type": "text",
        "initial": "",
        "validation": {
          "required": true,
          "validators": [
            {
              "type": "length",
              "length": 42
            },
            {
              "type": "IPAddress",
              "errorMessage": "Must be a valid IP Address. Please re-enter."
            }
          ]
        }
      },
      "destPort": {
        "label": "AF Port",
        "type": "text",
        "initial": "",
        "validation": {
          "validators": [
            {
              "type": "length",
              "length": 5
            },
            {
              "type": "Interval",
              "intervals": [
                [
                  0,
                  65535
                ]
              ],
              "errorMessage": "Must be between 0 - 65535. Please re-enter."
            }
          ]
        }
      },
      "ownnetid": {
        "label": "Network ID",
        "type": "select",
        "initial": "",
        "options": [],
        "optionsFormat": "networkIdIPAddressAndPortIncrement",
        "optionsFormatValue": "140",
        "validation": {
          "required": true,
          "validators": [
            {
              "type": "customFunction",
              "customValidationFunction": "networkIdNotFoundValidator",
              "errorMessage": "Please select another network ID."
            }
          ]
        }
      },
      "secinfoid": {
        "label": "TLS Profile (Security Info ID)",
        "type": "select",
        "initial": "",
        "options": [
          {
            "label": "None",
            "value": ""
          }
        ]
      },
      "reqState": {
        "label": "Configured State",
        "type": "select",
        "initial": "ACTIVE",
        "options": [
          {
            "label": "Active",
            "value": "ACTIVE"
          },
          {
            "label": "Inactive",
            "value": "INACTIVE"
          }
        ]
      },
      "state": {
        "label": "Current State",
        "type": "custom",
        "initial": "",
        "hide": "true",
        "customComponent": "accessFunctionCurrentState",
        "className": "field-current-state"
      },
      "dscp": {
        "label": "DSCP (0 - 63)",
        "type": "text",
        "initial": "32",
        "validation": {
          "validators": [
            {
              "type": "regexp",
              "regexp": "^(6[0-3]|[1-5][0-9]|[0-9])$",
              "errorMessage": "Must be between 0 - 63. Please re-enter."
            }
          ]
        }
      },
      "traceLevel": {
        "label": "Trace Level",
        "type": "select",
        "initial": "0",
        "options": [
          {
            "label": "None",
            "value": "0"
          },
          {
            "label": "1",
            "value": "1"
          },
          {
            "label": "2",
            "value": "2"
          },
          {
            "label": "3",
            "value": "3"
          },
          {
            "label": "4",
            "value": "4"
          }
        ]
      },
      "type": {
        "label": "Delivery Type",
        "type": "select",
        "initial": "GIZMO_TCP",
        "options": [
          {
            "label": "GIZMO_TCP",
            "value": "GIZMO_TCP"
          }
        ]
      }
    }
  }
}