{
  "version": "1.0.1",
  "name": "Nokia UDM",
  "key": "NOK_5GUDM",
  "processOptionProcName": "NOK5GUDMAFPIM",
  "general": {
    "metadata": {
      "layout": {
        "rows": [
          [
            "id",
            "liInterface",
            "type",
            "preprovisioningLead"
          ],
          [
            "name",
            "description",
            "tag",
            "insideNat"
          ]
        ]
      }
    },
    "fields": {
      "id": {
        "type": "text",
        "hide": "true",
        "initial": ""
      },
      "liInterface": {
        "type": "text",
        "hide": "true",
        "initial": "ALL"
      },
      "preprovisioningLead": {
        "type": "text",
        "hide": "true",
        "initial": "000:00"
      },
      "name": {
        "label": "Name",
        "type": "text",
        "initial": "",
        "validation": {
          "required": true,
          "validators": [
            {
              "type": "length",
              "length": 256
            },
            {
              "type": "regexp",
              "regexp": "^[A-Za-z0-9\\s\\-_\\.~!@#$%^*+?]{1,256}$",
              "errorMessage": "Must be between 1-256 characters. Can include letters, digits, spaces and the following special characters: -_.~!@#$%^*+?. Please re-enter."
            },
            {
              "type": "customFunction",
              "customValidationFunction": "nonRepeatedPropertyValidator",
              "errorMessage": "AF with this name already exists."
            }
          ]
        }
      },
      "description": {
        "label": "Description",
        "type": "text",
        "initial": "",
        "validation": {
          "validators": [
            {
              "type": "length",
              "length": 256
            }
          ]
        }
      },
      "type": {
        "type": "text",
        "hide": "true",
        "initial": "NOK_5GUDM"
      },
      "tag": {
        "label": "AF Type",
        "type": "select",
        "initial": "NOK_5GUDM",
        "options": [],
        "validation": {
          "required": true
        }
      },
      "insideNat": {
        "label": "Xcipio is behind NAT",
        "type": "checkbox",
        "initial": false
      }
    }
  },
  "systemInformation": {
    "metadata": {
      "layout": {
        "rows": [
          [
            "version",
            "model",
            "serialNumber",
            "contact"
          ],
          [
            "country",
            "stateName",
            "city",
            "timeZone"
          ]
        ]
      }
    },
    "fields": {
      "serialNumber": {
        "label": "Serial Number",
        "type": "text",
        "initial": "",
        "validation": {
          "validators": [
            {
              "type": "length",
              "length": 16
            }
          ]
        }
      },
      "model": {
        "label": "Model Number",
        "type": "text",
        "initial": "",
        "disabled": true
      },
      "version": {
        "label": "Software Version",
        "type": "textSuggest",
        "initial": "",
        "validation": {
          "validators": [
            {
              "type": "length",
              "length": 16
            }
          ]
        },
        "options": []
      },
      "country": {
        "label": "Country",
        "type": "select",
        "initial": "",
        "options": [
          {
            "label": "Select a country",
            "value": ""
          }
        ]
      },
      "stateName": {
        "label": "State/Province",
        "type": "select",
        "initial": "",
        "disabled": true,
        "options": [
          {
            "label": "Select a state/province",
            "value": ""
          }
        ]
      },
      "city": {
        "label": "City",
        "type": "select",
        "initial": "",
        "disabled": true,
        "options": [
          {
            "label": "Select a city",
            "value": ""
          }
        ]
      },
      "timeZone": {
        "label": "Time Zone",
        "type": "timezone",
        "initial": "",
        "options": [
          {
            "label": "Select a time zone",
            "value": ""
          }
        ],
        "validation": {
          "required": true
        }
      },
      "contact": {
        "label": "Contact",
        "type": "select",
        "initial": "",
        "options": [
          {
            "label": "Select a contact",
            "value": ""
          }
        ]
      }
    }
  },
  "provisioningInterfaces": {
    "metadata": {
      "layout": {
        "rows": [
          [
            "id",
            "ifid",
            "name",
            "destIPAddr",
            "role"
          ],
          [
            "uri",
            "processOptionSecInfo",
            "ownnetid",
            "mdf2NodeName"
          ],
          [
            "reqState",
            "$empty",
            "$empty",
            "$empty"
          ],
          [
            "state",
            "$empty",
            "$empty",
            "$empty"
          ]
        ],
        "collapsible": {
          "label": "Advanced Settings",
          "rows": [
            [
              "keepaliveinterval",
              "httpversion",
              "appProtocol",
              "version"
            ],
            [
              "transport",
              "$empty",
              "$empty",
              "$empty"
            ]
          ]
        }
      }
    },
    "fields": {
      "id": {
        "type": "text",
        "initial": "",
        "hide": "true"
      },
      "name": {
        "type": "text",
        "initial": "",
        "hide": "true"
      },
      "ifid": {
        "type": "text",
        "initial": "",
        "hide": "true"
      },
      "destIPAddr": {
        "type": "text",
        "initial": "0.0.0.0",
        "hide": "true"
      },
      "role": {
        "type": "text",
        "initial": "CLIENT",
        "hide": "true"
      },
      "uri": {
        "label": "AF URL",
        "type": "text",
        "initial": "",
        "placeholder": "e.g. http://10.0.162.30:21301",
        "validation": {
          "required": true,
          "validators": [
            {
              "type": "length",
              "length": 256
            },
            {
              "type": "URL",
              "errorMessage": "Must be a valid URL. Please re-enter."
            }
          ]
        }
      },
      "processOptionSecInfo": {
        "label": "TLS Profile (Security Info ID)",
        "type": "text",
        "initial": "None",
        "processOptionParamName": "SERVER_SECINFO",
        "readOnly": true
      },
      "ownnetid": {
        "label": "Network ID",
        "type": "select",
        "initial": "",
        "options": [],
        "optionsFormat": "networkIdAndIpAddress",
        "validation": {
          "required": true,
          "validators": [
            {
              "type": "customFunction",
              "customValidationFunction": "networkIdNotFoundValidator",
              "errorMessage": "Please select another network ID."
            }
          ]
        }
      },
      "reqState": {
        "label": "Configured State",
        "type": "select",
        "initial": "ACTIVE",
        "options": [
          {
            "label": "Active",
            "value": "ACTIVE"
          },
          {
            "label": "Inactive",
            "value": "INACTIVE"
          }
        ]
      },
      "mdf2NodeName": {
        "label": "MDF2 Node Name",
        "type": "select",
        "initial": "",
        "options": [
          {
            "label": "Select a Node",
            "value": ""
          }
        ],
        "validation": {
          "required": true
        }
      },
      "state": {
        "label": "Current State",
        "type": "custom",
        "initial": "",
        "hide": "true",
        "customComponent": "accessFunctionCurrentState",
        "className": "field-current-state"
      },
      "keepaliveinterval": {
        "label": "Keepalive Interval (Sec)",
        "type": "text",
        "initial": "60",
        "validation": {
          "validators": [
            {
              "type": "length",
              "length": 8
            },
            {
              "type": "Interval",
              "intervals": [
                [
                  0,
                  0
                ],
                [
                  60,
                  99999999
                ]
              ],
              "errorMessage": "Must be 0 or between 60 - 99999999. Please re-enter."
            }
          ]
        }
      },
      "transport": {
        "label": "Transport",
        "type": "text",
        "initial": "HTTP",
        "readOnly": true
      },
      "httpversion": {
        "label": "HTTP Version",
        "type": "select",
        "initial": "HTTP/2",
        "options": []
      },
      "appProtocol": {
        "label": "AF Protocol",
        "type": "text",
        "initial": "NOK_5GUDM",
        "readOnly": true
      },
      "version": {
        "label": "AF Protocol Version",
        "type": "text",
        "disabled": true,
        "initial": "1.7.1"
      }
    }
  },
  "dataInterfaces": {
    "metadata": {
      "sectionType": "distributorConfiguration"
    },
    "fields": {
      "moduleName": {
        "type": "select",
        "options": [
          {
            "label": "NOK5GUDMX2IM",
            "value": "NOK5GUDMX2IM"
          }
        ],
        "hide": "true"
      },
      "afWhitelist": {
        "hide": "false"
      }
    }
  }
}