{
  "version": "1.0.1",
  "name": "Sensor Virtual Radius",
  "key": "GPVRADIUS",
  "general": {
    "metadata": {
      "layout": {
        "rows": [
          [
            "id",
            "liInterface",
            "type",
            "preprovisioningLead"
          ],
          [
            "name",
            "description",
            "tag",
            "insideNat"
          ]
        ]
      }
    },
    "fields": {
      "id": {
        "type": "text",
        "hide": "true",
        "initial": ""
      },
      "liInterface": {
        "type": "text",
        "hide": "true",
        "initial": "ALL"
      },
      "preprovisioningLead": {
        "type": "text",
        "hide": "true",
        "initial": "000:00"
      },
      "name": {
        "label": "Name",
        "type": "text",
        "initial": "",
        "validation": {
          "required": true,
          "validators": [
            {
              "type": "length",
              "length": 256
            },
            {
              "type": "regexp",
              "regexp": "^[A-Za-z0-9\\s\\-_\\.~!@#$%^*+?]{1,256}$",
              "errorMessage": "Must be between 1-256 characters. Can include letters, digits, spaces and the following special characters: -_.~!@#$%^*+?. Please re-enter."
            },
            {
              "type": "customFunction",
              "customValidationFunction": "nonRepeatedPropertyValidator",
              "errorMessage": "AF with this name already exists."
            }
          ]
        }
      },
      "description": {
        "label": "Description",
        "type": "text",
        "initial": "",
        "validation": {
          "validators": [
            {
              "type": "length",
              "length": 256
            }
          ]
        }
      },
      "type": {
        "type": "text",
        "hide": "true",
        "initial": "GPVRADIUS"
      },
      "tag": {
        "label": "AF Type",
        "type": "select",
        "initial": "GPVRADIUS",
        "options": [],
        "validation": {
          "required": true
        }
      },
      "insideNat": {
        "label": "Xcipio is behind NAT",
        "type": "checkbox",
        "initial": false
      }
    }
  },
  "systemInformation": {
    "metadata": {
      "layout": {
        "rows": [
          [
            "version",
            "model",
            "serialNumber",
            "contact"
          ],
          [
            "country",
            "stateName",
            "city",
            "timeZone"
          ]
        ]
      }
    },
    "fields": {
      "serialNumber": {
        "label": "Serial Number",
        "type": "text",
        "initial": "",
        "validation": {
          "validators": [
            {
              "type": "length",
              "length": 16
            }
          ]
        }
      },
      "model": {
        "label": "Model Number",
        "type": "text",
        "initial": "",
        "disabled": true
      },
      "version": {
        "label": "Software Version",
        "type": "text",
        "initial": "",
        "disabled": true
      },
      "country": {
        "label": "Country",
        "type": "select",
        "initial": "",
        "options": [
          {
            "label": "Select a country",
            "value": ""
          }
        ]
      },
      "stateName": {
        "label": "State/Province",
        "type": "select",
        "initial": "",
        "disabled": true,
        "options": [
          {
            "label": "Select a state/province",
            "value": ""
          }
        ]
      },
      "city": {
        "label": "City",
        "type": "select",
        "initial": "",
        "disabled": true,
        "options": [
          {
            "label": "Select a city",
            "value": ""
          }
        ]
      },
      "timeZone": {
        "label": "Time Zone",
        "type": "timezone",
        "initial": "",
        "options": [
          {
            "label": "Select a time zone",
            "value": ""
          }
        ],
        "validation": {
          "required": true
        }
      },
      "contact": {
        "label": "Contact",
        "type": "select",
        "initial": "",
        "options": [
          {
            "label": "Select a contact",
            "value": ""
          }
        ]
      }
    }
  },
  "dataInterfaces": {
    "metadata": {
      "sectionType": "distributorConfiguration",
      "sectionTypeInstructionalText": "All AFs of this type are auto-associated with all SS8 Distributors of the same type. <br /> The listener <b>Allowed AF IPs list</b> will determine if an AF will be listened or not. Empty lists will listen to all points of interception of the same type. Click on the link to view or edit the list."
    },
    "fields": {
      "moduleName": {
        "type": "select",
        "options": [
          {
            "label": "RADX2IM",
            "value": "RADX2IM"
          },
          {
            "label": "RADAFIM",
            "value": "RADAFIM"
          }
        ],
        "hide": "true"
      },
      "afWhitelist": {
        "hide": "false"
      }
    }
  }
}