{
  "version": "1.0.0",
  "name": "Mavenir PGW",
  "key": "MVNR_PGW",
  "processOptionProcName": "MVPGWAFIM",
  "general": {
    "metadata": {
      "layout": {
        "rows": [
          [
            "id",
            "liInterface",
            "type",
            "preprovisioningLead"
          ],
          [
            "name",
            "description",
            "tag",
            "insideNat"
          ],
          [
            "contentDeliveryVia",
            "$empty",
            "$empty",
            "$empty"
          ]
        ]
      }
    },
    "fields": {
      "id": {
        "type": "text",
        "hide": "true",
        "initial": ""
      },
      "liInterface": {
        "type": "text",
        "hide": "true",
        "initial": "ALL"
      },
      "preprovisioningLead": {
        "type": "text",
        "hide": "true",
        "initial": "000:00"
      },
      "name": {
        "label": "Name",
        "type": "text",
        "initial": "",
        "validation": {
          "required": true,
          "validators": [
            {
              "type": "length",
              "length": 256
            },
            {
              "type": "regexp",
              "regexp": "^[A-Za-z0-9\\s\\-_\\.~!@#$%^*+?]{1,256}$",
              "errorMessage": "Must be between 1-256 characters. Can include letters, digits, spaces and the following special characters: -_.~!@#$%^*+?. Please re-enter."
            },
            {
              "type": "customFunction",
              "customValidationFunction": "nonRepeatedPropertyValidator",
              "errorMessage": "AF with this name already exists."
            }
          ]
        }
      },
      "description": {
        "label": "Description",
        "type": "text",
        "initial": "",
        "validation": {
          "validators": [
            {
              "type": "length",
              "length": 256
            }
          ]
        }
      },
      "type": {
        "type": "text",
        "hide": "true",
        "initial": "MVNR_PGW"
      },
      "tag": {
        "label": "AF Type",
        "type": "select",
        "initial": "MVNR_PGW",
        "options": [],
        "validation": {
          "required": true
        }
      },
      "insideNat": {
        "label": "Xcipio is behind NAT",
        "type": "checkbox",
        "initial": false
      },
      "contentDeliveryVia": {
        "label": "Configure",
        "type": "select",
        "initial": "directFromAF",
        "options": [
          {
            "label": "without Traffic Manager",
            "value": "directFromAF"
          },
          {
            "label": "with Traffic Manager",
            "value": "trafficManager"
          }
        ]
      }
    }
  },
  "systemInformation": {
    "metadata": {
      "layout": {
        "rows": [
          [
            "version",
            "model",
            "serialNumber",
            "contact"
          ],
          [
            "country",
            "stateName",
            "city",
            "timeZone"
          ]
        ]
      }
    },
    "fields": {
      "serialNumber": {
        "label": "Serial Number",
        "type": "text",
        "initial": "",
        "validation": {
          "validators": [
            {
              "type": "length",
              "length": 16
            }
          ]
        }
      },
      "model": {
        "label": "Model Number",
        "type": "text",
        "initial": "",
        "disabled": true
      },
      "version": {
        "label": "Software Version",
        "type": "text",
        "initial": "",
        "validation": {
          "validators": [
            {
              "type": "length",
              "length": 16
            }
          ]
        }
      },
      "country": {
        "label": "Country",
        "type": "select",
        "initial": "",
        "options": [
          {
            "label": "Select a country",
            "value": ""
          }
        ]
      },
      "stateName": {
        "label": "State/Province",
        "type": "select",
        "initial": "",
        "disabled": true,
        "options": [
          {
            "label": "Select a state/province",
            "value": ""
          }
        ]
      },
      "city": {
        "label": "City",
        "type": "select",
        "initial": "",
        "disabled": true,
        "options": [
          {
            "label": "Select a city",
            "value": ""
          }
        ]
      },
      "timeZone": {
        "label": "Time Zone",
        "type": "timezone",
        "initial": "",
        "options": [
          {
            "label": "Select a time zone",
            "value": ""
          }
        ],
        "validation": {
          "required": true
        }
      },
      "contact": {
        "label": "Contact",
        "type": "select",
        "initial": "",
        "options": [
          {
            "label": "Select a contact",
            "value": ""
          }
        ]
      }
    }
  },
  "provisioningInterfaces_directFromAF": {
    "metadata": {
      "min": 0,
      "max": 1,
      "layout": {
        "rows": [
          [
            "id",
            "name",
            "litype",
            "role",
            "destIPAddr"
          ],
          [
            "uri",
            "secinfoid",
            "ownnetid",
            "reqState"
          ],
          [
            "$empty",
            "$empty",
            "$empty",
            "state"
          ]
        ],
        "collapsible": {
          "label": "Advanced Settings",
          "rows": [
            [
              "dscp",
              "keepaliveinterval",
              "litargetnamespace",
              "transport"
            ],
            [
              "appProtocol",
              "version",
              "$empty",
              "$empty"
            ]
          ]
        }
      }
    },
    "fields": {
      "id": {
        "type": "text",
        "hide": "true",
        "initial": ""
      },
      "name": {
        "type": "text",
        "hide": "true",
        "initial": ""
      },
      "litype": {
        "type": "text",
        "hide": "true",
        "initial": "INI1"
      },
      "role": {
        "type": "text",
        "hide": "true",
        "initial": "CLIENT"
      },
      "destIPAddr": {
        "type": "text",
        "hide": "true",
        "initial": "0.0.0.0"
      },
      "uri": {
        "label": "AF URL",
        "type": "text",
        "initial": "",
        "placeholder": "e.g. https://www.mavenir.net:443/li/",
        "validation": {
          "required": true,
          "validators": [
            {
              "type": "length",
              "length": 256
            },
            {
              "type": "URL",
              "errorMessage": "Must be a valid URL. Please re-enter."
            }
          ]
        },
        "affectedFieldsOnChange": [
          "secinfoid"
        ]
      },
      "ownnetid": {
        "label": "Network ID",
        "type": "select",
        "initial": "",
        "options": [],
        "validation": {
          "required": true,
          "validators": [
            {
              "type": "customFunction",
              "customValidationFunction": "networkIdNotFoundValidator",
              "errorMessage": "Please select another network ID."
            }
          ]
        }
      },
      "secinfoid": {
        "label": "TLS Profile (Security Info ID)",
        "type": "select",
        "initial": "",
        "options": [
          {
            "label": "None",
            "value": ""
          }
        ],
        "validation": {
          "required": true
        }
      },
      "reqState": {
        "label": "Configured State",
        "type": "select",
        "initial": "ACTIVE",
        "options": [
          {
            "label": "Active",
            "value": "ACTIVE"
          },
          {
            "label": "Inactive",
            "value": "INACTIVE"
          }
        ]
      },
      "state": {
        "label": "Current State",
        "type": "custom",
        "initial": "",
        "hide": "true",
        "customComponent": "accessFunctionCurrentState",
        "className": "field-current-state"
      },
      "dscp": {
        "label": "DSCP (0-63)",
        "type": "text",
        "initial": "0",
        "validation": {
          "required": true,
          "validators": [
            {
              "type": "length",
              "length": 2
            },
            {
              "type": "Interval",
              "intervals": [
                [
                  0,
                  63
                ]
              ],
              "errorMessage": "Must be between 0 - 63. Please re-enter."
            }
          ]
        }
      },
      "keepaliveinterval": {
        "label": "Keepalive Interval",
        "type": "text",
        "initial": "60",
        "validation": {
          "required": true,
          "validators": [
            {
              "type": "length",
              "length": 8
            },
            {
              "type": "Interval",
              "intervals": [
                [
                  0,
                  0
                ],
                [
                  60,
                  99999999
                ]
              ],
              "errorMessage": "Must be 0 or between 60 - 99999999. Please re-enter."
            }
          ]
        }
      },
      "transport": {
        "label": "Transport",
        "type": "text",
        "initial": "HTTP",
        "disabled": true
      },
      "appProtocol": {
        "label": "AF Protocol",
        "type": "text",
        "initial": "MVRN_UAG_PGW",
        "readOnly": true
      },
      "version": {
        "label": "AF Protocol Version",
        "type": "text",
        "initial": "1.0",
        "readOnly": true
      },
      "litargetnamespace": {
        "label": "LI Target Namespace",
        "type": "text",
        "initial": "http://mavenir.net/li/",
        "validation": {
          "validators": [
            {
              "type": "length",
              "length": 256
            }
          ]
        }
      }
    }
  },
  "dataInterfaces_directFromAF": {
    "metadata": {
      "min": 0,
      "max": 1,
      "layout": {
        "rows": [
          [
            "id",
            "name",
            "litype",
            "role"
          ],
          [
            "destIPAddr",
            "destPort",
            "secinfoid",
            "ownnetid"
          ],
          [
            "reqState",
            "$empty",
            "$empty",
            "$empty"
          ],
          [
            "state",
            "$empty",
            "$empty",
            "$empty"
          ]
        ],
        "collapsible": {
          "label": "Advanced Settings",
          "rows": [
            [
              "dscp",
              "iri_payload_encoding",
              "maxx2connsperaf",
              "transport"
            ],
            [
              "appProtocol",
              "version",
              "$empty",
              "$empty"
            ]
          ]
        }
      }
    },
    "fields": {
      "id": {
        "type": "text",
        "hide": "true",
        "initial": ""
      },
      "name": {
        "type": "text",
        "hide": "true",
        "initial": ""
      },
      "litype": {
        "type": "text",
        "hide": "true",
        "initial": "INI2"
      },
      "role": {
        "type": "text",
        "hide": "true",
        "initial": "SERVER"
      },
      "destIPAddr": {
        "label": "AF IP Address",
        "type": "text",
        "initial": "",
        "validation": {
          "required": true,
          "validators": [
            {
              "type": "length",
              "length": 42
            },
            {
              "type": "IPAddress",
              "errorMessage": "Must be a valid IP Address. Please re-enter."
            }
          ]
        }
      },
      "destPort": {
        "label": "AF Port",
        "type": "text",
        "initial": "0",
        "readOnly": true,
        "validation": {
          "validators": [
            {
              "type": "length",
              "length": 5
            },
            {
              "type": "Interval",
              "intervals": [
                [
                  0,
                  65535
                ]
              ],
              "errorMessage": "Must be between 0 - 65535. Please re-enter."
            }
          ]
        }
      },
      "ownnetid": {
        "label": "Network ID",
        "type": "select",
        "initial": "",
        "processOptionParamName": "IRILISTENPORT",
        "processOptionLoadParamValueTo": "optionsFormatValue",
        "options": [],
        "optionsFormat": "networkIdIPAddressAndCustomPort",
        "optionsFormatValue": "11990",
        "validation": {
          "required": true,
          "validators": [
            {
              "type": "customFunction",
              "customValidationFunction": "networkIdNotFoundValidator",
              "errorMessage": "Please select another network ID."
            }
          ]
        }
      },
      "secinfoid": {
        "label": "TLS Profile (Security Info ID)",
        "type": "select",
        "initial": "Tk9ORQ",
        "options": [
          {
            "label": "None",
            "value": "Tk9ORQ"
          }
        ]
      },
      "reqState": {
        "label": "Configured State",
        "type": "select",
        "initial": "ACTIVE",
        "options": [
          {
            "label": "Active",
            "value": "ACTIVE"
          },
          {
            "label": "Inactive",
            "value": "INACTIVE"
          }
        ]
      },
      "state": {
        "label": "Current State",
        "type": "custom",
        "initial": "",
        "hide": "true",
        "customComponent": "accessFunctionCurrentState",
        "className": "field-current-state"
      },
      "dscp": {
        "label": "DSCP (0-63)",
        "type": "text",
        "initial": "0",
        "validation": {
          "required": true,
          "validators": [
            {
              "type": "length",
              "length": 2
            },
            {
              "type": "Interval",
              "intervals": [
                [
                  0,
                  63
                ]
              ],
              "errorMessage": "Must be between 0 - 63. Please re-enter."
            }
          ]
        }
      },
      "iri_payload_encoding": {
        "label": "IRI Payload Encoding",
        "type": "select",
        "initial": "NONE",
        "options": [
          {
            "label": "None",
            "value": "NONE"
          },
          {
            "label": "BASE64",
            "value": "BASE64"
          }
        ]
      },
      "transport": {
        "label": "Transport",
        "type": "text",
        "initial": "TCP",
        "disabled": true
      },
      "appProtocol": {
        "label": "AF Protocol",
        "type": "text",
        "initial": "MVRN_UAG_PGW",
        "readOnly": true
      },
      "version": {
        "label": "AF Protocol Version",
        "type": "text",
        "initial": "1.0",
        "readOnly": true
      },
      "maxx2connsperaf": {
        "label": "Maximum Concurrent Connections",
        "type": "text",
        "initial": "4",
        "processOptionParamName": "MAXX2CONNSPERAF",
        "readOnly": true
      }
    }
  },
  "contentInterfaces_directFromAF": {
    "metadata": {
      "min": 0,
      "max": 1,
      "layout": {
        "rows": [
          [
            "id",
            "name",
            "litype",
            "role"
          ],
          [
            "destIPAddr",
            "destPort",
            "ownnetid",
            "reqState"
          ],
          [
            "$empty",
            "$empty",
            "$empty",
            "state"
          ]
        ],
        "collapsible": {
          "label": "Advanced Settings",
          "rows": [
            [
              "transport",
              "appProtocol",
              "version",
              "$empty"
            ]
          ]
        }
      }
    },
    "fields": {
      "id": {
        "type": "text",
        "hide": "true",
        "initial": ""
      },
      "name": {
        "type": "text",
        "hide": "true",
        "initial": ""
      },
      "litype": {
        "type": "text",
        "hide": "true",
        "initial": "INI3"
      },
      "role": {
        "type": "text",
        "hide": "true",
        "initial": "SERVER"
      },
      "destIPAddr": {
        "label": "AF IP Address",
        "type": "text",
        "initial": "",
        "validation": {
          "required": true,
          "validators": [
            {
              "type": "length",
              "length": 42
            },
            {
              "type": "IPAddress",
              "errorMessage": "Must be a valid IP Address. Please re-enter."
            }
          ]
        }
      },
      "destPort": {
        "label": "AF Port",
        "type": "text",
        "initial": "0",
        "validation": {
          "required": true,
          "validators": [
            {
              "type": "length",
              "length": 5
            },
            {
              "type": "Interval",
              "intervals": [
                [
                  0,
                  65535
                ]
              ],
              "errorMessage": "Must be between 0 - 65535. Please re-enter."
            }
          ]
        }
      },
      "ownnetid": {
        "label": "Network ID",
        "type": "select",
        "initial": "",
        "processOptionParamName": "CCLISTENPORT",
        "processOptionLoadParamValueTo": "optionsFormatValue",
        "options": [
          {
            "label": "Select a Network ID",
            "value": ""
          }
        ],
        "optionsFormat": "networkIdIPAddressAndCustomPort",
        "optionsFormatValue": "45131",
        "validation": {
          "validators": [
            {
              "type": "customFunction",
              "customValidationFunction": "networkIdNotFoundValidator",
              "errorMessage": "Please select another network ID."
            }
          ]
        }
      },
      "reqState": {
        "label": "Configured State",
        "type": "select",
        "initial": "ACTIVE",
        "options": [
          {
            "label": "Active",
            "value": "ACTIVE"
          },
          {
            "label": "Inactive",
            "value": "INACTIVE"
          }
        ]
      },
      "state": {
        "label": "Current State",
        "type": "custom",
        "initial": "",
        "hide": "true",
        "customComponent": "accessFunctionCurrentState",
        "className": "field-current-state"
      },
      "transport": {
        "label": "Transport",
        "type": "text",
        "initial": "TCP",
        "processOptionParamName": "CCTRANSPORT",
        "disabled": true
      },
      "appProtocol": {
        "label": "AF Protocol",
        "type": "text",
        "initial": "MVRN_UAG_PGW",
        "readOnly": true
      },
      "version": {
        "label": "AF Protocol Version",
        "type": "text",
        "initial": "1.0",
        "readOnly": true
      }
    }
  },
  "contentInterfaces_trafficManager": {
    "metadata": {
      "min": 1,
      "max": 1,
      "layout": {
        "rows": [
          [
            "id",
            "name"
          ],
          [
            "lbid",
            "maxx2connsperaf",
            "destIPAddr",
            "destPort"
          ],
          [
            "ownnetid",
            "reqState",
            "$empty",
            "$empty"
          ],
          [
            "$empty",
            "state",
            "$empty",
            "$empty"
          ]
        ],
        "collapsible": {
          "label": "Advanced Settings",
          "rows": [
            [
              "dscp",
              "type",
              "traceLevel",
              "$empty"
            ]
          ]
        }
      }
    },
    "fields": {
      "id": {
        "type": "text",
        "hide": "true",
        "initial": ""
      },
      "name": {
        "type": "text",
        "hide": "true",
        "initial": ""
      },
      "lbid": {
        "label": "XTP ID",
        "type": "select",
        "initial": "",
        "options": []
      },
      "destIPAddr": {
        "label": "AF IP Address",
        "type": "text",
        "initial": "",
        "validation": {
          "required": true,
          "validators": [
            {
              "type": "length",
              "length": 42
            },
            {
              "type": "IPAddress",
              "errorMessage": "Must be a valid IP Address. Please re-enter."
            }
          ]
        }
      },
      "destPort": {
        "label": "AF Port",
        "type": "text",
        "initial": "0",
        "validation": {
          "validators": [
            {
              "type": "length",
              "length": 50
            },
            {
              "type": "customFunction",
              "customValidationFunction": "portListValidator",
              "errorMessages": {
                "singlePort": "Enter 0 or 1 unique port number.",
                "multiplePorts": "Enter 0 or {{ports}} unique port numbers separated by comma."
              }
            }
          ]
        }
      },
      "ownnetid": {
        "label": "Network ID",
        "type": "select",
        "initial": "",
        "options": [],
        "optionsFormat": "networkIdIPAddressAndPortIncrement",
        "optionsFormatValue": "130",
        "validation": {
          "required": true,
          "validators": [
            {
              "type": "customFunction",
              "customValidationFunction": "networkIdNotFoundValidator",
              "errorMessage": "Please select another network ID."
            }
          ]
        }
      },
      "reqState": {
        "label": "Configured State",
        "type": "select",
        "initial": "ACTIVE",
        "options": [
          {
            "label": "Active",
            "value": "ACTIVE"
          },
          {
            "label": "Inactive",
            "value": "INACTIVE"
          }
        ]
      },
      "state": {
        "label": "Current State",
        "type": "custom",
        "initial": "",
        "hide": "true",
        "customComponent": "accessFunctionCurrentState",
        "className": "field-current-state"
      },
      "type": {
        "label": "Delivery Type",
        "type": "text",
        "initial": "MVNRPGW_TCP",
        "readOnly": true
      },
      "traceLevel": {
        "label": "Trace Level",
        "type": "select",
        "initial": "0",
        "options": [
          {
            "label": "None",
            "value": "0"
          },
          {
            "label": "1",
            "value": "1"
          },
          {
            "label": "2",
            "value": "2"
          },
          {
            "label": "3",
            "value": "3"
          },
          {
            "label": "4",
            "value": "4"
          }
        ]
      },
      "dscp": {
        "label": "DSCP (0-63)",
        "type": "text",
        "initial": "32",
        "validation": {
          "required": true,
          "validators": [
            {
              "type": "length",
              "length": 2
            },
            {
              "type": "Interval",
              "intervals": [
                [
                  0,
                  63
                ]
              ],
              "errorMessage": "Must be between 0 - 63. Please re-enter."
            }
          ]
        }
      },
      "maxx2connsperaf": {
        "label": "Maximum Concurrent Connections",
        "type": "select",
        "initial": "4",
        "affectedFieldsOnChange": [
          "destPort"
        ],
        "options": [
          "1",
          "2",
          "3",
          "4",
          "5",
          "6",
          "7",
          "8",
          "9",
          "10",
          "11",
          "12",
          "13",
          "14",
          "15",
          "16",
          "17",
          "18",
          "19",
          "20",
          "21",
          "22",
          "23",
          "24",
          "25",
          "26",
          "27",
          "28",
          "29",
          "30",
          "31",
          "32"
        ]
      }
    }
  }
}