{
    "roles": {
        "permissions": {
            "system_admin": "System Admin",
            "group_admin": "Group Admin",
            "role_admin": "Role Admin",
            "user_admin": "User Admin",
            "config_admin": "Config Admin",
            "team_admin": "Team Admin",
            "warrant_view": "Warrant View",
            "warrant_write": "Warrant Write",
            "warrant_delete": "Warrant Delete",
            "af_view": "Af View",
            "af_write": "Af Write",
            "af_delete": "Af Delete",
            "cf_view": "Cf View",
            "cf_write": "Cf Write",
            "cf_delete": "Cf Delete",
            "df_view": "Df View",
            "df_write": "Df Write",
            "df_delete": "Df Delete",
            "contact_view": "Contact View",
            "contact_write": "Contact Write",
            "contact_delete": "Contact Delete",
            "user_view": "User View",
            "user_write": "User Write",
            "user_delete": "User Delete",
            "userrole_view": "Role View",
            "userrole_write": "Role Write",
            "userrole_delete": "Role Delete",
            "policy_view": "Policy View",
            "policy_write": "Policy Write",
            "team_view": "Team View",
            "team_write": "Team Write",
            "team_delete": "Team Delete",
            "audit_log_view": "Audit Log View",
            "audit_log_delete": "Audit Log Delete",
            "access_functions": "Access Functions",
            "collection_functions": "Collection Functions",
            "delivery_functions": "Delivery Functions",
            "warrants": "Warrants",
            "contacts": "Contacts",
            "users": "Users",
            "roles": "Roles",
            "policy": "Password and Access Policies",
            "teams": "Teams",
            "auditlog": "Audit Log",
            "alarm": "Alarms Notification",
            "report": "Report Access",
            "dashboard":"Monitoring",
            "sys_health":"System Health",
            "sys_config": "System Configuration",
            "alarm_access": "Access Alarm Notifications",
            "af_report": "Access Functions Reports",
            "cf_report" : "Collection Functions Reports",
            "warrant_report": "Warrant Reports",
            "stat_report" : "Statistics Reports",
            "dashboard_access" : "Access Monitoring",
            "sh_access" : "Access System Health",
            "br_access" : "Backup/Restore",
            "dfsubsys_access" : "DF Subsystem",
            "mml_access" : "MML Command(s)",
            "wt_access" : "Web Terminal",
            "dashboard_af" : "Access Functions",
            "dashboard_cf" : "Collection Functions",
            "dashboard_warrant": "Warrants",
            "dashboard_KPI" : "KPIs",
            "dashboard_alarm" : "Alarms",
            "dashboard_license" : "Licenses",
            "dashboard_sh" : "System Health",
            "dashboard_admin" : "Admin",
            "dashboard_reports" : "Dashboard/Reports",
            "dc_access" : "Distributor Configuration",
            "tp_access" : "Security Gateway"
        }
    }
}